EESchema Schematic File Version 2
LIBS:power
LIBS:device
LIBS:transistors
LIBS:conn
LIBS:linear
LIBS:regul
LIBS:74xx
LIBS:cmos4000
LIBS:adc-dac
LIBS:memory
LIBS:xilinx
LIBS:microcontrollers
LIBS:dsp
LIBS:microchip
LIBS:analog_switches
LIBS:motorola
LIBS:texas
LIBS:intel
LIBS:audio
LIBS:interface
LIBS:digital-audio
LIBS:philips
LIBS:display
LIBS:cypress
LIBS:siliconi
LIBS:opto
LIBS:atmel
LIBS:contrib
LIBS:valves
LIBS:Supermileage
LIBS:StingSchematics-cache
EELAYER 25 0
EELAYER END
$Descr USLetter 8500 11000 portrait
encoding utf-8
Sheet 5 5
Title "Sting - Gasoline Prototype"
Date "2016-05-25"
Rev "1.5"
Comp "Cedarville University"
Comment1 "Samuel Ellicott"
Comment2 "schematic for CM3626 computer "
Comment3 ""
Comment4 ""
$EndDescr
Text HLabel 1800 3450 0    60   Input ~ 0
Wake
Text HLabel 1800 3550 0    60   Input ~ 0
Power
Text HLabel 1800 3650 0    60   Input ~ 0
GND
Wire Wire Line
	4300 3550 4300 3700
Wire Wire Line
	1800 3550 4500 3550
Wire Wire Line
	3350 4150 3350 3450
Wire Wire Line
	3350 3450 1800 3450
$Comp
L GND #PWR?
U 1 1 574C77EF
P 2250 3750
AR Path="/574DBC57/574C77EF" Ref="#PWR?"  Part="1" 
AR Path="/57A204AA/58697D86/574C77EF" Ref="#PWR?"  Part="1" 
F 0 "#PWR?" H 2250 3500 50  0001 C CNN
F 1 "GND" H 2250 3600 50  0000 C CNN
F 2 "" H 2250 3750 50  0000 C CNN
F 3 "" H 2250 3750 50  0000 C CNN
	1    2250 3750
	1    0    0    -1  
$EndComp
Wire Wire Line
	2250 3750 2250 3650
Wire Wire Line
	2250 3650 1800 3650
Text HLabel 1800 4100 0    60   Output ~ 0
E_Start
Text HLabel 1800 4200 0    60   Output ~ 0
E_Stop
Text HLabel 1800 4300 0    60   Output ~ 0
Horn
Text HLabel 1800 4450 0    60   Input ~ 0
Arm_Status
Text Label 1900 4100 0    60   ~ 0
E_Start
Text Label 1900 4200 0    60   ~ 0
E_Stop
Text Label 1900 4300 0    60   ~ 0
Horn
Text Label 1900 4450 0    60   ~ 0
Arm_Status
Wire Wire Line
	1800 4100 1900 4100
Wire Wire Line
	1800 4200 1900 4200
Wire Wire Line
	1800 4300 1900 4300
Wire Wire Line
	1800 4450 1900 4450
Text Label 5550 4550 0    60   ~ 0
E_Start
Text Label 5550 4650 0    60   ~ 0
E_Stop
Wire Wire Line
	5550 4650 5450 4650
Wire Wire Line
	5550 4550 5450 4550
Text Label 5550 4150 0    60   ~ 0
Horn
Wire Wire Line
	5450 4150 5550 4150
Text Label 3250 4350 2    60   ~ 0
Arm_Status
Wire Wire Line
	3250 4350 3350 4350
$Comp
L CM0711_b U?
U 1 1 5869477B
P 4400 5050
AR Path="/574DBC57/5869477B" Ref="U?"  Part="1" 
AR Path="/57A204AA/58697D86/5869477B" Ref="U?"  Part="1" 
F 0 "U?" H 4400 5050 60  0001 C CNN
F 1 "CM0711_b" H 4900 6150 60  0000 C CNN
F 2 "" H 4350 3300 60  0000 C CNN
F 3 "" H 4350 3300 60  0000 C CNN
	1    4400 5050
	1    0    0    -1  
$EndComp
Wire Wire Line
	4400 3550 4400 3700
Connection ~ 4300 3550
Wire Wire Line
	4500 3550 4500 3700
Connection ~ 4400 3550
Wire Wire Line
	4300 6250 4300 6350
Wire Wire Line
	4300 6350 4500 6350
Wire Wire Line
	4500 6350 4500 6250
$Comp
L GND #PWR?
U 1 1 5869577C
P 4400 6400
AR Path="/574DBC57/5869577C" Ref="#PWR?"  Part="1" 
AR Path="/57A204AA/58697D86/5869577C" Ref="#PWR?"  Part="1" 
F 0 "#PWR?" H 4400 6150 50  0001 C CNN
F 1 "GND" H 4400 6250 50  0000 C CNN
F 2 "" H 4400 6400 50  0000 C CNN
F 3 "" H 4400 6400 50  0000 C CNN
	1    4400 6400
	1    0    0    -1  
$EndComp
Wire Wire Line
	4400 6400 4400 6350
Connection ~ 4400 6350
Text HLabel 1800 4600 0    60   BiDi ~ 0
CANH
Text HLabel 1800 4700 0    60   BiDi ~ 0
CANL
Text HLabel 1800 4800 0    60   UnSpc ~ 0
CAN_GND
Wire Wire Line
	3350 5350 1900 5350
Wire Wire Line
	1900 5350 1900 4800
Wire Wire Line
	1900 4800 1800 4800
Text Label 1900 4600 0    60   ~ 0
CANH
Text Label 1900 4700 0    60   ~ 0
CANL
Wire Wire Line
	1800 4600 1900 4600
Wire Wire Line
	1800 4700 1900 4700
Text Label 5550 5700 0    60   ~ 0
CANH
Text Label 5550 5800 0    60   ~ 0
CANL
Wire Wire Line
	5550 5700 5450 5700
Wire Wire Line
	5450 5800 5550 5800
$EndSCHEMATC
