EESchema Schematic File Version 2
LIBS:power
LIBS:device
LIBS:transistors
LIBS:conn
LIBS:linear
LIBS:regul
LIBS:74xx
LIBS:cmos4000
LIBS:adc-dac
LIBS:memory
LIBS:xilinx
LIBS:microcontrollers
LIBS:dsp
LIBS:microchip
LIBS:analog_switches
LIBS:motorola
LIBS:texas
LIBS:intel
LIBS:audio
LIBS:interface
LIBS:digital-audio
LIBS:philips
LIBS:display
LIBS:cypress
LIBS:siliconi
LIBS:opto
LIBS:atmel
LIBS:contrib
LIBS:valves
LIBS:Supermileage
LIBS:StingSchematics-cache
EELAYER 25 0
EELAYER END
$Descr USLetter 11000 8500
encoding utf-8
Sheet 2 5
Title "EFI Breakout"
Date "2017-01-04"
Rev "1.7"
Comp "Cedarville University"
Comment1 "Edited by Samuel Ellicott"
Comment2 "Andy Raines"
Comment3 "Shematic for Megasquirt breakout box"
Comment4 ""
$EndDescr
$Comp
L DB25 J?
U 1 1 587A40E4
P 5425 3450
F 0 "J?" H 5475 4800 50  0001 C CNN
F 1 "DB25" H 5375 2100 50  0000 C CNN
F 2 "Connect:DB25MC" H 5425 3450 50  0001 C CNN
F 3 "" H 5425 3450 50  0000 C CNN
	1    5425 3450
	1    0    0    -1  
$EndComp
Text HLabel 1625 1375 1    60   Input ~ 0
P_4_12v
Text HLabel 1825 1375 1    60   Input ~ 0
P_2_GND
Text HLabel 1725 1375 1    60   Input ~ 0
P_3_O2
Text HLabel 3475 1375 1    60   Output ~ 0
INJ_2_B
Text HLabel 3575 1375 1    60   Output ~ 0
INJ_1_A
Text HLabel 3925 1375 1    60   Output ~ 0
IGN_2_B
Text HLabel 2825 1375 1    60   Output ~ 0
RPM_4_12v
Text HLabel 2925 1375 1    60   Input ~ 0
RPM_3_Sen
Text HLabel 3025 1375 1    60   Output ~ 0
RPM_2_GND
Text HLabel 2225 1375 1    60   Output ~ 0
O2_4_12v
Text HLabel 2325 1375 1    60   Input ~ 0
O2_3_Sen
$Comp
L CONN_01X04 P?
U 1 1 587A40E5
P 2375 2050
F 0 "P?" V 2575 2050 50  0001 C CNN
F 1 "O2 Sensor" V 2475 2050 50  0000 C CNN
F 2 "" H 2375 2050 50  0001 C CNN
F 3 "" H 2375 2050 50  0000 C CNN
	1    2375 2050
	0    1    -1   0   
$EndComp
$Comp
L CONN_01X02 P?
U 1 1 587A40E6
P 3525 2050
F 0 "P?" V 3725 2050 50  0001 C CNN
F 1 "Injector" V 3625 2050 50  0000 C CNN
F 2 "" H 3525 2050 50  0001 C CNN
F 3 "" H 3525 2050 50  0000 C CNN
	1    3525 2050
	0    1    -1   0   
$EndComp
$Comp
L CONN_01X02 P?
U 1 1 587A40E7
P 3975 2050
F 0 "P?" V 4175 2050 50  0001 C CNN
F 1 "Ignition" V 4075 2050 50  0000 C CNN
F 2 "" H 3975 2050 50  0001 C CNN
F 3 "" H 3975 2050 50  0000 C CNN
	1    3975 2050
	0    1    -1   0   
$EndComp
$Comp
L CONN_01X04 P?
U 1 1 587A40E8
P 2975 2050
F 0 "P?" V 3175 2050 50  0001 C CNN
F 1 "RPM" V 3075 2050 50  0000 C CNN
F 2 "" H 2975 2050 50  0001 C CNN
F 3 "" H 2975 2050 50  0000 C CNN
	1    2975 2050
	0    1    -1   0   
$EndComp
$Comp
L CONN_01X04 P?
U 1 1 587A40E9
P 1775 2050
F 0 "P?" V 1975 2050 50  0001 C CNN
F 1 "Power" V 1875 2050 50  0000 C CNN
F 2 "Supermileage:Molex-UltraFit-4p" H 1775 2050 50  0001 C CNN
F 3 "" H 1775 2050 50  0000 C CNN
	1    1775 2050
	0    1    -1   0   
$EndComp
Text HLabel 2425 1375 1    60   UnSpc ~ 0
O2_2_Cal
Text HLabel 2525 1375 1    60   Output ~ 0
O2_1_GND
$Comp
L DB25 J?
U 1 1 587A40EA
P 5925 3450
F 0 "J?" H 5975 4800 50  0001 C CNN
F 1 "DB25" H 5875 2100 50  0000 C CNN
F 2 "" H 5925 3450 50  0001 C CNN
F 3 "" H 5925 3450 50  0000 C CNN
	1    5925 3450
	-1   0    0    -1  
$EndComp
$Comp
L DB37 J?
U 1 1 587A40EB
P 9925 3400
F 0 "J?" H 10025 5300 50  0001 C CNN
F 1 "Megasquirt" H 9875 1450 50  0000 C CNN
F 2 "" H 9925 3400 50  0001 C CNN
F 3 "" H 9925 3400 50  0000 C CNN
	1    9925 3400
	1    0    0    -1  
$EndComp
Text Label 6475 4550 0    60   ~ 0
TPS_5V
Text Label 6475 4350 0    60   ~ 0
TACH
Text Label 6475 4150 0    60   ~ 0
IAC1A
Text Label 6475 3850 0    60   ~ 0
IAC1B
Text Label 6475 3650 0    60   ~ 0
+12V_in
Text Label 6475 3250 0    60   ~ 0
IAC2B
Text Label 6475 3450 0    60   ~ 0
FP
Text Label 6475 3050 0    60   ~ 0
INJ2
Text Label 6475 2950 0    60   ~ 0
INJ1
Text Label 6475 4050 0    60   ~ 0
IAC2A
Text Label 6475 3950 0    60   ~ 0
INJ1
Text Label 6475 2750 0    60   ~ 0
INJ2
Text Label 6475 2650 0    60   ~ 0
IGN
Text Label 6475 2550 0    60   ~ 0
FIDLE
Text Label 6475 2350 0    60   ~ 0
O2
Text Label 6475 3150 0    60   ~ 0
TPS
Text Label 6475 3550 0    60   ~ 0
MAT
Text Label 6475 3750 0    60   ~ 0
CLT
Text Notes 5175 5000 0    60   ~ 0
                             Output Pin1\nConnected to Input Pin19 GND for Urbie\nConnected to Input Pin11 GND for Sting
Text Label 6475 4450 0    60   ~ 0
SEN_GND
Text Notes 6925 4450 0    60   ~ 0
ONLY ON STING!!!
Text Notes 6925 2750 0    60   ~ 0
ONLY ON STING
Text Notes 6925 4250 0    60   ~ 0
ONLY ON STING
Text Label 6525 2450 0    60   ~ 0
white
Text Label 6475 2850 0    60   ~ 0
purple
Text HLabel 3175 7150 3    60   Output ~ 0
MAT_1_A
Text HLabel 3075 7150 3    60   Output ~ 0
MAT_2_B
Text HLabel 3775 7150 3    60   Output ~ 0
CLT_1_A
Text HLabel 3675 7150 3    60   Output ~ 0
CLT_2_B
$Comp
L CONN_01X04 P?
U 1 1 587A40EC
P 2275 6500
F 0 "P?" V 2475 6500 50  0001 C CNN
F 1 "Throttle Position Sensor" V 2375 6500 50  0000 C CNN
F 2 "" H 2275 6500 50  0001 C CNN
F 3 "" H 2275 6500 50  0000 C CNN
	1    2275 6500
	0    1    1    0   
$EndComp
$Comp
L CONN_01X04 P?
U 1 1 587A40ED
P 4425 6500
F 0 "P?" V 4625 6500 50  0001 C CNN
F 1 "Stepper IAC" V 4525 6500 50  0000 C CNN
F 2 "" H 4425 6500 50  0001 C CNN
F 3 "" H 4425 6500 50  0000 C CNN
	1    4425 6500
	0    1    1    0   
$EndComp
Text HLabel 4375 7150 3    60   Output ~ 0
IAC_3_1B
Text HLabel 4275 7150 3    60   Output ~ 0
IAC_4_2B
$Comp
L CONN_01X02 P?
U 1 1 587A40EE
P 3125 6500
F 0 "P?" V 3325 6500 50  0001 C CNN
F 1 "Intake Air Temp" V 3225 6500 50  0000 C CNN
F 2 "" H 3125 6500 50  0001 C CNN
F 3 "" H 3125 6500 50  0000 C CNN
	1    3125 6500
	0    1    1    0   
$EndComp
$Comp
L CONN_01X02 P?
U 1 1 587A40EF
P 3725 6500
F 0 "P?" V 3925 6500 50  0001 C CNN
F 1 "Coolant Temp" V 3825 6500 50  0000 C CNN
F 2 "" H 3725 6500 50  0001 C CNN
F 3 "" H 3725 6500 50  0000 C CNN
	1    3725 6500
	0    1    1    0   
$EndComp
Text Label 9075 5100 0    60   ~ 0
MAT
Text Label 9075 4900 0    60   ~ 0
CLT
Text Label 9075 4700 0    60   ~ 0
TPS
Text Label 9075 4500 0    60   ~ 0
O2
Text Label 9075 4300 0    60   ~ 0
TACH
Text Label 9075 4100 0    60   ~ 0
IAC1A
Text Label 9075 4000 0    60   ~ 0
SEN_GND
Text Label 9075 3900 0    60   ~ 0
TPS_5V
Text Label 9075 3400 0    60   ~ 0
GND
Text Label 9075 3700 0    60   ~ 0
IAC1B
Text Label 6475 2250 0    60   ~ 0
GND
Text Label 6475 4250 0    60   ~ 0
GND
Text Label 9075 3600 0    60   ~ 0
GND
Text Label 9075 3500 0    60   ~ 0
+12V_in
Text Label 9075 3300 0    60   ~ 0
IAC2A
Text Label 9075 2700 0    60   ~ 0
INJ1
Text Label 9075 3100 0    60   ~ 0
FIDLE
Text Label 9075 2900 0    60   ~ 0
IAC2B
Text Label 9075 2500 0    60   ~ 0
INJ1
Text Label 9075 1700 0    60   ~ 0
FP
Text Label 9075 2300 0    60   ~ 0
INJ2
Text Label 9075 1900 0    60   ~ 0
IGN
Text Label 9075 2100 0    60   ~ 0
INJ2
Entry Wire Line
	8975 1600 9075 1700
Entry Wire Line
	8975 1800 9075 1900
Entry Wire Line
	8975 2000 9075 2100
Entry Wire Line
	8975 2200 9075 2300
Entry Wire Line
	8975 2400 9075 2500
Entry Wire Line
	8975 2600 9075 2700
Entry Wire Line
	8975 2800 9075 2900
Entry Wire Line
	8975 3000 9075 3100
Entry Wire Line
	8975 3100 9075 3200
Entry Wire Line
	8975 3200 9075 3300
Entry Wire Line
	8975 3300 9075 3400
Entry Wire Line
	8975 3400 9075 3500
Entry Wire Line
	8975 3500 9075 3600
Entry Wire Line
	8975 3600 9075 3700
Entry Wire Line
	8975 3800 9075 3900
Entry Wire Line
	8975 3900 9075 4000
Entry Wire Line
	8975 4000 9075 4100
Entry Wire Line
	8975 4200 9075 4300
Entry Wire Line
	8975 4400 9075 4500
Entry Wire Line
	8975 4600 9075 4700
Entry Wire Line
	8975 4800 9075 4900
Entry Wire Line
	8975 5000 9075 5100
Entry Wire Line
	7725 2250 7825 2350
Entry Wire Line
	7725 2350 7825 2450
Entry Wire Line
	7725 2550 7825 2650
Entry Wire Line
	7725 2650 7825 2750
Entry Wire Line
	7725 2750 7825 2850
Entry Wire Line
	7725 2950 7825 3050
Entry Wire Line
	7725 3050 7825 3150
Entry Wire Line
	7725 3150 7825 3250
Entry Wire Line
	7725 3250 7825 3350
Entry Wire Line
	7725 3450 7825 3550
Entry Wire Line
	7725 3550 7825 3650
Entry Wire Line
	7725 3650 7825 3750
Entry Wire Line
	7725 3750 7825 3850
Entry Wire Line
	7725 3850 7825 3950
Entry Wire Line
	7725 3950 7825 4050
Entry Wire Line
	7725 4050 7825 4150
Entry Wire Line
	7725 4150 7825 4250
Entry Wire Line
	7725 4250 7825 4350
Entry Wire Line
	7725 4350 7825 4450
Entry Wire Line
	7725 4450 7825 4550
Entry Wire Line
	7725 4550 7825 4650
Entry Wire Line
	7725 4650 7825 4750
Text Label 9075 4800 0    60   ~ 0
CANH
Text Label 9075 4600 0    60   ~ 0
CANL
NoConn ~ 9475 4400
NoConn ~ 9475 4200
NoConn ~ 9475 3800
NoConn ~ 9475 3000
NoConn ~ 9475 2800
NoConn ~ 9475 2600
NoConn ~ 9475 5000
Text Label 9075 3200 0    60   ~ 0
GND
Text Label 6475 4650 0    60   ~ 0
GND
NoConn ~ 9475 1600
NoConn ~ 9475 1800
NoConn ~ 9475 2000
NoConn ~ 9475 2200
NoConn ~ 9475 2400
NoConn ~ 9475 5200
NoConn ~ 6375 3350
Text Label 6825 2450 0    60   ~ 0
CANH
Text Label 6825 2850 0    60   ~ 0
CANL
Entry Wire Line
	7725 2450 7825 2550
Entry Wire Line
	7725 2850 7825 2950
Entry Wire Line
	8975 4700 9075 4800
Entry Wire Line
	8975 4500 9075 4600
$Comp
L CONN_01X04 P?
U 1 1 587A40F0
P 1125 2050
F 0 "P?" V 1325 2050 50  0001 C CNN
F 1 "CAN" V 1225 2050 50  0000 C CNN
F 2 "" H 1125 2050 50  0000 C CNN
F 3 "" H 1125 2050 50  0000 C CNN
	1    1125 2050
	0    1    -1   0   
$EndComp
NoConn ~ 975  2250
Text HLabel 1275 1375 1    60   UnSpc ~ 0
CAN_1_GND
Text HLabel 1175 1375 1    60   BiDi ~ 0
CAN_2_CANL
Text HLabel 1075 1375 1    60   BiDi ~ 0
CAN_3_CANH
Text HLabel 975  1375 1    60   UnSpc ~ 0
CAN_4_PWR
$Comp
L CONN_01X04 P?
U 1 1 587A40F1
P 1125 1675
F 0 "P?" V 1325 1675 50  0001 C CNN
F 1 "CAN" V 1225 1675 50  0000 C CNN
F 2 "" H 1125 1675 50  0000 C CNN
F 3 "" H 1125 1675 50  0000 C CNN
	1    1125 1675
	0    1    1    0   
$EndComp
$Comp
L CONN_01X04 P?
U 1 1 587A40F2
P 1775 1675
F 0 "P?" V 1975 1675 50  0001 C CNN
F 1 "Power" V 1875 1675 50  0000 C CNN
F 2 "Supermileage:Molex-UltraFit-4p" H 1775 1675 50  0001 C CNN
F 3 "" H 1775 1675 50  0000 C CNN
	1    1775 1675
	0    1    1    0   
$EndComp
Wire Wire Line
	1275 3050 4825 3050
Connection ~ 1825 3050
Connection ~ 1925 3050
Wire Wire Line
	1925 3050 1925 2250
Wire Wire Line
	1825 3050 1825 2250
Wire Wire Line
	1625 2750 2825 2750
Wire Wire Line
	1625 2750 1625 2250
Wire Wire Line
	1725 2250 1725 2350
Wire Wire Line
	3025 3050 3025 2250
Wire Wire Line
	2825 2250 2825 3650
Wire Wire Line
	2925 2250 2925 4350
Wire Wire Line
	3475 2250 3475 3950
Wire Wire Line
	3925 2250 3925 2650
Wire Wire Line
	4025 2250 4025 3050
Wire Wire Line
	6375 3450 7725 3450
Wire Wire Line
	9075 2100 9475 2100
Wire Wire Line
	9475 1700 9075 1700
Wire Wire Line
	6375 4650 7725 4650
Wire Wire Line
	6375 2650 7725 2650
Wire Wire Line
	9075 1900 9475 1900
Wire Wire Line
	6375 3050 7725 3050
Wire Wire Line
	9475 2300 9075 2300
Wire Wire Line
	6375 2750 7725 2750
Wire Wire Line
	6375 2950 7725 2950
Wire Wire Line
	9075 2500 9475 2500
Wire Wire Line
	6375 3950 7725 3950
Wire Wire Line
	9075 2700 9475 2700
Wire Wire Line
	6375 3250 7725 3250
Wire Wire Line
	9075 2900 9475 2900
Wire Wire Line
	6375 2550 7725 2550
Wire Wire Line
	9075 3100 9475 3100
Wire Wire Line
	6375 4050 7725 4050
Wire Wire Line
	9075 3300 9475 3300
Wire Wire Line
	6375 3650 7725 3650
Wire Wire Line
	9075 3500 9475 3500
Wire Wire Line
	6375 3850 7725 3850
Wire Wire Line
	9075 3700 9475 3700
Wire Wire Line
	6375 4550 7725 4550
Wire Wire Line
	9075 3900 9475 3900
Wire Wire Line
	9075 4100 9475 4100
Wire Wire Line
	6375 4350 7725 4350
Wire Wire Line
	6375 2350 7725 2350
Wire Wire Line
	9075 4500 9475 4500
Wire Wire Line
	2325 2350 4975 2350
Wire Wire Line
	9075 4700 9475 4700
Wire Wire Line
	6375 3550 7725 3550
Wire Wire Line
	6375 4450 7725 4450
Wire Wire Line
	9075 4000 9475 4000
Wire Wire Line
	6375 2250 7725 2250
Wire Wire Line
	9075 3600 9475 3600
Wire Wire Line
	6375 4250 7725 4250
Wire Wire Line
	9075 3400 9475 3400
Wire Wire Line
	9075 3200 9475 3200
Wire Wire Line
	6375 2850 7725 2850
Wire Wire Line
	6375 2450 7725 2450
Wire Wire Line
	2225 3150 4975 3150
Wire Wire Line
	2225 3150 2225 6300
Wire Wire Line
	2125 4550 2125 6300
Wire Wire Line
	4575 4150 4575 6300
Wire Wire Line
	4475 4050 4475 6300
Wire Wire Line
	4375 3850 4375 6300
Wire Wire Line
	4275 3250 4275 6300
Wire Wire Line
	4975 4150 4575 4150
Wire Wire Line
	4975 4050 4475 4050
Wire Wire Line
	4975 3850 4375 3850
Wire Wire Line
	4975 3250 4275 3250
Wire Wire Line
	2825 3650 4975 3650
Wire Wire Line
	4975 4450 4925 4450
Wire Wire Line
	4925 4450 4925 4850
Wire Wire Line
	4925 4850 2325 4850
Wire Wire Line
	4975 3750 3775 3750
Wire Wire Line
	3775 3750 3775 6300
Wire Wire Line
	4975 3550 3175 3550
Wire Wire Line
	2925 4350 4975 4350
Connection ~ 3125 3050
Connection ~ 3575 3050
Connection ~ 4025 3050
Connection ~ 3025 3050
Wire Wire Line
	3925 2650 4975 2650
Wire Wire Line
	3675 4850 3675 6300
Wire Wire Line
	3175 3550 3175 6300
Wire Wire Line
	3075 4850 3075 6300
Wire Wire Line
	2125 4550 4975 4550
Wire Wire Line
	4825 4650 4975 4650
Connection ~ 2525 3050
Wire Wire Line
	4825 2250 4825 4650
Connection ~ 3075 4850
Connection ~ 3675 4850
Wire Wire Line
	6375 3150 7725 3150
Wire Wire Line
	6375 3750 7725 3750
Wire Wire Line
	9075 5100 9475 5100
Wire Wire Line
	9075 4900 9475 4900
Wire Wire Line
	9475 4300 9075 4300
Wire Wire Line
	6375 4150 7725 4150
Wire Bus Line
	8975 1550 8975 5300
Wire Bus Line
	8975 5300 7825 5300
Wire Bus Line
	7825 5300 7825 2250
Wire Wire Line
	4975 2950 3475 2950
Connection ~ 3475 2950
Wire Wire Line
	9075 4600 9475 4600
Wire Wire Line
	9075 4800 9475 4800
Wire Wire Line
	4975 4250 4825 4250
Connection ~ 4825 4250
Wire Wire Line
	4975 2250 4825 2250
Connection ~ 4825 3050
Wire Wire Line
	1275 2250 1275 3050
Wire Wire Line
	1075 2450 4975 2450
Wire Wire Line
	1075 2450 1075 2250
Wire Wire Line
	1175 2850 4975 2850
Text HLabel 1925 1375 1    60   Input ~ 0
P_1_GND
$Comp
L CONN_01X04 P?
U 1 1 587A40F3
P 2375 1675
F 0 "P?" V 2575 1675 50  0001 C CNN
F 1 "O2 Sensor" V 2475 1675 50  0000 C CNN
F 2 "" H 2375 1675 50  0001 C CNN
F 3 "" H 2375 1675 50  0000 C CNN
	1    2375 1675
	0    1    1    0   
$EndComp
Wire Wire Line
	1725 2350 2225 2350
Wire Wire Line
	2525 2250 2525 3050
Wire Wire Line
	2225 2350 2225 2250
Wire Wire Line
	2325 2250 2325 2350
$Comp
L CONN_01X04 P?
U 1 1 587A40F4
P 2975 1675
F 0 "P?" V 3175 1675 50  0001 C CNN
F 1 "RPM" V 3075 1675 50  0000 C CNN
F 2 "" H 2975 1675 50  0001 C CNN
F 3 "" H 2975 1675 50  0000 C CNN
	1    2975 1675
	0    1    1    0   
$EndComp
Text HLabel 3125 1375 1    60   Output ~ 0
RPM_1_GND
Wire Wire Line
	3125 2250 3125 3050
Connection ~ 2825 2750
$Comp
L CONN_01X02 P?
U 1 1 587A40F5
P 3525 1675
F 0 "P?" V 3725 1675 50  0001 C CNN
F 1 "Injector" V 3625 1675 50  0000 C CNN
F 2 "" H 3525 1675 50  0001 C CNN
F 3 "" H 3525 1675 50  0000 C CNN
	1    3525 1675
	0    1    1    0   
$EndComp
Wire Wire Line
	3475 1475 3475 1375
Wire Wire Line
	3575 1475 3575 1375
Wire Wire Line
	3475 3950 4975 3950
Wire Wire Line
	3575 2250 3575 3050
$Comp
L CONN_01X02 P?
U 1 1 587A40F6
P 3975 1675
F 0 "P?" V 4175 1675 50  0001 C CNN
F 1 "Ignition" V 4075 1675 50  0000 C CNN
F 2 "" H 3975 1675 50  0001 C CNN
F 3 "" H 3975 1675 50  0000 C CNN
	1    3975 1675
	0    1    1    0   
$EndComp
Text HLabel 4025 1375 1    60   Output ~ 0
IGN_1_A
$Comp
L CONN_01X04 P?
U 1 1 587A40F7
P 2275 6850
F 0 "P?" V 2475 6850 50  0001 C CNN
F 1 "Throttle Position Sensor" V 2375 6850 50  0000 C CNN
F 2 "" H 2275 6850 50  0001 C CNN
F 3 "" H 2275 6850 50  0000 C CNN
	1    2275 6850
	0    1    -1   0   
$EndComp
Text HLabel 2225 7150 3    60   Input ~ 0
TPS_3_SEN
Text HLabel 2125 7150 3    60   Output ~ 0
TPS_4_REF
Text HLabel 2325 7150 3    60   Output ~ 0
TPS_2_GND
Text HLabel 2425 7150 3    60   Output ~ 0
TPS_1_GND
$Comp
L CONN_01X04 P?
U 1 1 587A40F8
P 4425 6850
F 0 "P?" V 4625 6850 50  0001 C CNN
F 1 "Stepper IAC" V 4525 6850 50  0000 C CNN
F 2 "" H 4425 6850 50  0001 C CNN
F 3 "" H 4425 6850 50  0000 C CNN
	1    4425 6850
	0    1    -1   0   
$EndComp
Text HLabel 4575 7150 3    60   Output ~ 0
IAC_1_1A
Text HLabel 4475 7150 3    60   Output ~ 0
IAC_2_2A
$Comp
L CONN_01X02 P?
U 1 1 587A40F9
P 3125 6850
F 0 "P?" V 3325 6850 50  0001 C CNN
F 1 "Intake Air Temp" V 3225 6850 50  0000 C CNN
F 2 "" H 3125 6850 50  0001 C CNN
F 3 "" H 3125 6850 50  0000 C CNN
	1    3125 6850
	0    1    -1   0   
$EndComp
$Comp
L CONN_01X02 P?
U 1 1 587A40FA
P 3725 6850
F 0 "P?" V 3925 6850 50  0001 C CNN
F 1 "Coolant Temp" V 3825 6850 50  0000 C CNN
F 2 "" H 3725 6850 50  0001 C CNN
F 3 "" H 3725 6850 50  0000 C CNN
	1    3725 6850
	0    1    -1   0   
$EndComp
Wire Wire Line
	2325 4850 2325 6300
Wire Wire Line
	2425 6300 2425 4850
Connection ~ 2425 4850
Wire Wire Line
	1175 2250 1175 2850
NoConn ~ 4975 3450
NoConn ~ 4975 3350
NoConn ~ 4975 3050
NoConn ~ 4975 2750
NoConn ~ 4975 2550
Wire Wire Line
	975  1475 975  1375
Wire Wire Line
	1075 1475 1075 1375
Wire Wire Line
	1175 1475 1175 1375
Wire Wire Line
	1275 1475 1275 1375
Wire Wire Line
	1625 1475 1625 1375
Wire Wire Line
	1725 1475 1725 1375
Wire Wire Line
	1825 1475 1825 1375
Wire Wire Line
	1925 1475 1925 1375
Wire Wire Line
	2225 1475 2225 1375
Wire Wire Line
	2325 1475 2325 1375
Wire Wire Line
	2425 1475 2425 1375
Wire Wire Line
	2525 1475 2525 1375
Wire Wire Line
	2825 1475 2825 1375
Wire Wire Line
	2925 1475 2925 1375
Wire Wire Line
	3025 1475 3025 1375
Wire Wire Line
	3125 1475 3125 1375
Wire Wire Line
	3925 1475 3925 1375
Wire Wire Line
	4025 1475 4025 1375
Wire Wire Line
	2125 7150 2125 7050
Wire Wire Line
	2225 7150 2225 7050
Wire Wire Line
	2325 7150 2325 7050
Wire Wire Line
	2425 7150 2425 7050
Wire Wire Line
	3075 7150 3075 7050
Wire Wire Line
	3175 7150 3175 7050
Wire Wire Line
	3675 7150 3675 7050
Wire Wire Line
	3775 7150 3775 7050
Wire Wire Line
	4275 7150 4275 7050
Wire Wire Line
	4375 7150 4375 7050
Wire Wire Line
	4475 7150 4475 7050
Wire Wire Line
	4575 7150 4575 7050
$EndSCHEMATC
