EESchema Schematic File Version 2
LIBS:power
LIBS:device
LIBS:transistors
LIBS:conn
LIBS:linear
LIBS:regul
LIBS:74xx
LIBS:cmos4000
LIBS:adc-dac
LIBS:memory
LIBS:xilinx
LIBS:microcontrollers
LIBS:dsp
LIBS:microchip
LIBS:analog_switches
LIBS:motorola
LIBS:texas
LIBS:intel
LIBS:audio
LIBS:interface
LIBS:digital-audio
LIBS:philips
LIBS:display
LIBS:cypress
LIBS:siliconi
LIBS:opto
LIBS:atmel
LIBS:contrib
LIBS:valves
LIBS:Supermileage
LIBS:EllicottPower
LIBS:Current Sensor-cache
EELAYER 25 0
EELAYER END
$Descr A4 11693 8268
encoding utf-8
Sheet 1 2
Title ""
Date ""
Rev ""
Comp ""
Comment1 ""
Comment2 ""
Comment3 ""
Comment4 ""
$EndDescr
$Comp
L CONN_01X05 P3
U 1 1 581D2171
P 1150 1250
F 0 "P3" H 1150 1550 50  0000 C CNN
F 1 "DuraClik-5" V 1250 1250 50  0000 C CNN
F 2 "User_Connectors:Molex-duraClick-5conn" H 1150 1250 50  0001 C CNN
F 3 "" H 1150 1250 50  0000 C CNN
F 4 "Mouser" H 1150 1250 60  0001 C CNN "Distributor"
F 5 "538-502352-0501 " H 1150 1250 60  0001 C CNN "PN"
	1    1150 1250
	-1   0    0    1   
$EndComp
$Comp
L C_Small C1
U 1 1 581D2DD5
P 3400 4600
F 0 "C1" H 3450 4500 50  0000 L CNN
F 1 "1nf" V 3300 4550 50  0000 L CNN
F 2 "Capacitors_SMD:C_0603_HandSoldering" H 3400 4600 50  0001 C CNN
F 3 "" H 3400 4600 50  0000 C CNN
	1    3400 4600
	-1   0    0    1   
$EndComp
$Comp
L ACS710 U1
U 1 1 581D35C3
P 3400 3550
F 0 "U1" H 3400 3350 60  0000 C CNN
F 1 "ACS710" H 3400 3450 60  0000 C CNN
F 2 "Supermileage:DIP-16-SchmartBoard" H 3300 3500 60  0001 C CNN
F 3 "" H 3300 3500 60  0000 C CNN
	1    3400 3550
	1    0    0    -1  
$EndComp
$Comp
L GND #PWR01
U 1 1 581D4318
P 3400 4850
F 0 "#PWR01" H 3400 4600 50  0001 C CNN
F 1 "GND" H 3400 4700 50  0000 C CNN
F 2 "" H 3400 4850 50  0000 C CNN
F 3 "" H 3400 4850 50  0000 C CNN
	1    3400 4850
	1    0    0    -1  
$EndComp
Text Label 4150 3300 2    60   ~ 0
OUT1
Text Label 1450 1150 0    60   ~ 0
OUT1
Text Label 1450 1250 0    60   ~ 0
OUT2
Text Label 1450 1350 0    60   ~ 0
OUT3
$Comp
L NJM2870F0 U2
U 1 1 581D8FCD
P 5100 1150
F 0 "U2" H 5100 1100 60  0000 C CNN
F 1 "NJM2870F0" H 5100 1300 60  0000 C CNN
F 2 "TO_SOT_Packages_SMD:SOT-23-5" H 5100 1100 60  0001 C CNN
F 3 "" H 5100 1100 60  0000 C CNN
F 4 "Mouser" H 5100 1150 60  0001 C CNN "Distributor"
F 5 "513-NJM2870F05-TE2 " H 5100 1150 60  0001 C CNN "PN"
	1    5100 1150
	1    0    0    -1  
$EndComp
$Comp
L Q_PMOS_GSD Q1
U 1 1 581D906E
P 4150 1250
F 0 "Q1" V 4350 1150 50  0000 R CNN
F 1 "Reverse" V 4100 1650 50  0000 R CNN
F 2 "TO_SOT_Packages_SMD:SOT-23_Handsoldering" H 4350 1350 50  0001 C CNN
F 3 "" H 4150 1250 50  0000 C CNN
F 4 "Mouser" H 4150 1250 60  0001 C CNN "Distributor"
F 5 "863-NTR3A30PZT1G " H 4150 1250 60  0001 C CNN "PN"
	1    4150 1250
	0    -1   -1   0   
$EndComp
$Comp
L GND #PWR02
U 1 1 581D9B80
P 5100 1950
F 0 "#PWR02" H 5100 1700 50  0001 C CNN
F 1 "GND" H 5100 1800 50  0000 C CNN
F 2 "" H 5100 1950 50  0000 C CNN
F 3 "" H 5100 1950 50  0000 C CNN
	1    5100 1950
	1    0    0    -1  
$EndComp
$Comp
L C C4
U 1 1 581D9BD4
P 4450 1650
F 0 "C4" H 4475 1750 50  0000 L CNN
F 1 "0.1uf" H 4475 1550 50  0000 L CNN
F 2 "Capacitors_SMD:C_0603_HandSoldering" H 4488 1500 50  0001 C CNN
F 3 "" H 4450 1650 50  0000 C CNN
	1    4450 1650
	1    0    0    -1  
$EndComp
$Comp
L C C5
U 1 1 581D9F71
P 5700 1650
F 0 "C5" H 5725 1750 50  0000 L CNN
F 1 "0.1uf" H 5725 1550 50  0000 L CNN
F 2 "Capacitors_SMD:C_0603_HandSoldering" H 5738 1500 50  0001 C CNN
F 3 "" H 5700 1650 50  0000 C CNN
	1    5700 1650
	1    0    0    -1  
$EndComp
$Comp
L C C6
U 1 1 581D9FED
P 6000 1650
F 0 "C6" H 6025 1750 50  0000 L CNN
F 1 "0.1uf" H 6025 1550 50  0000 L CNN
F 2 "Capacitors_SMD:C_0603_HandSoldering" H 6038 1500 50  0001 C CNN
F 3 "" H 6000 1650 50  0000 C CNN
	1    6000 1650
	1    0    0    -1  
$EndComp
$Comp
L C C7
U 1 1 581DA042
P 6300 1650
F 0 "C7" H 6325 1750 50  0000 L CNN
F 1 "10uf" H 6325 1550 50  0000 L CNN
F 2 "Capacitors_SMD:C_0603_HandSoldering" H 6338 1500 50  0001 C CNN
F 3 "" H 6300 1650 50  0000 C CNN
	1    6300 1650
	1    0    0    -1  
$EndComp
$Comp
L GND #PWR03
U 1 1 581DAE4B
P 1450 1500
F 0 "#PWR03" H 1450 1250 50  0001 C CNN
F 1 "GND" H 1450 1350 50  0000 C CNN
F 2 "" H 1450 1500 50  0000 C CNN
F 3 "" H 1450 1500 50  0000 C CNN
	1    1450 1500
	1    0    0    -1  
$EndComp
$Comp
L C C3
U 1 1 581DBD64
P 4100 2600
F 0 "C3" H 4125 2700 50  0000 L CNN
F 1 "0.1uf" H 4125 2500 50  0000 L CNN
F 2 "Capacitors_SMD:C_0603_HandSoldering" H 4138 2450 50  0001 C CNN
F 3 "" H 4100 2600 50  0000 C CNN
	1    4100 2600
	1    0    0    -1  
$EndComp
$Comp
L +5V #PWR04
U 1 1 581DBEBF
P 4100 2400
F 0 "#PWR04" H 4100 2250 50  0001 C CNN
F 1 "+5V" H 4100 2540 50  0000 C CNN
F 2 "" H 4100 2400 50  0000 C CNN
F 3 "" H 4100 2400 50  0000 C CNN
	1    4100 2400
	1    0    0    -1  
$EndComp
$Comp
L GND #PWR05
U 1 1 581DBF70
P 4100 2800
F 0 "#PWR05" H 4100 2550 50  0001 C CNN
F 1 "GND" H 4100 2650 50  0000 C CNN
F 2 "" H 4100 2800 50  0000 C CNN
F 3 "" H 4100 2800 50  0000 C CNN
	1    4100 2800
	1    0    0    -1  
$EndComp
$Comp
L C_Small C8
U 1 1 581DD7BC
P 6350 4600
F 0 "C8" H 6400 4500 50  0000 L CNN
F 1 "1nf" V 6250 4550 50  0000 L CNN
F 2 "Capacitors_SMD:C_0603_HandSoldering" H 6350 4600 50  0001 C CNN
F 3 "" H 6350 4600 50  0000 C CNN
	1    6350 4600
	-1   0    0    1   
$EndComp
$Comp
L ACS710 U3
U 1 1 581DD7C3
P 6350 3550
F 0 "U3" H 6350 3350 60  0000 C CNN
F 1 "ACS710" H 6350 3450 60  0000 C CNN
F 2 "Supermileage:DIP-16-SchmartBoard" H 6250 3500 60  0001 C CNN
F 3 "" H 6250 3500 60  0000 C CNN
	1    6350 3550
	1    0    0    -1  
$EndComp
$Comp
L C_Small C9
U 1 1 581DD7CA
P 6600 4600
F 0 "C9" H 6600 4500 50  0000 L CNN
F 1 "4.7nf" V 6500 4550 50  0000 L CNN
F 2 "Capacitors_SMD:C_0603_HandSoldering" H 6600 4600 50  0001 C CNN
F 3 "" H 6600 4600 50  0000 C CNN
	1    6600 4600
	-1   0    0    1   
$EndComp
$Comp
L GND #PWR06
U 1 1 581DD7D1
P 6350 4850
F 0 "#PWR06" H 6350 4600 50  0001 C CNN
F 1 "GND" H 6350 4700 50  0000 C CNN
F 2 "" H 6350 4850 50  0000 C CNN
F 3 "" H 6350 4850 50  0000 C CNN
	1    6350 4850
	1    0    0    -1  
$EndComp
Text Label 7100 3300 2    60   ~ 0
OUT2
$Comp
L C C11
U 1 1 581DD8AF
P 7050 2600
F 0 "C11" H 7075 2700 50  0000 L CNN
F 1 "0.1uf" H 7075 2500 50  0000 L CNN
F 2 "Capacitors_SMD:C_0603_HandSoldering" H 7088 2450 50  0001 C CNN
F 3 "" H 7050 2600 50  0000 C CNN
	1    7050 2600
	1    0    0    -1  
$EndComp
$Comp
L +5V #PWR07
U 1 1 581DD8B6
P 7050 2400
F 0 "#PWR07" H 7050 2250 50  0001 C CNN
F 1 "+5V" H 7050 2540 50  0000 C CNN
F 2 "" H 7050 2400 50  0000 C CNN
F 3 "" H 7050 2400 50  0000 C CNN
	1    7050 2400
	1    0    0    -1  
$EndComp
$Comp
L GND #PWR08
U 1 1 581DD8BD
P 7050 2800
F 0 "#PWR08" H 7050 2550 50  0001 C CNN
F 1 "GND" H 7050 2650 50  0000 C CNN
F 2 "" H 7050 2800 50  0000 C CNN
F 3 "" H 7050 2800 50  0000 C CNN
	1    7050 2800
	1    0    0    -1  
$EndComp
$Comp
L C_Small C14
U 1 1 581DDF58
P 9250 4600
F 0 "C14" H 9300 4500 50  0000 L CNN
F 1 "1nf" V 9150 4550 50  0000 L CNN
F 2 "Capacitors_SMD:C_0603_HandSoldering" H 9250 4600 50  0001 C CNN
F 3 "" H 9250 4600 50  0000 C CNN
	1    9250 4600
	-1   0    0    1   
$EndComp
$Comp
L ACS710 U5
U 1 1 581DDF5F
P 9250 3550
F 0 "U5" H 9250 3350 60  0000 C CNN
F 1 "ACS710" H 9250 3450 60  0000 C CNN
F 2 "Supermileage:DIP-16-SchmartBoard" H 9150 3500 60  0001 C CNN
F 3 "" H 9150 3500 60  0000 C CNN
	1    9250 3550
	1    0    0    -1  
$EndComp
$Comp
L C_Small C15
U 1 1 581DDF66
P 9500 4600
F 0 "C15" H 9550 4500 50  0000 L CNN
F 1 "4.7nf" V 9400 4550 50  0000 L CNN
F 2 "Capacitors_SMD:C_0603_HandSoldering" H 9500 4600 50  0001 C CNN
F 3 "" H 9500 4600 50  0000 C CNN
	1    9500 4600
	-1   0    0    1   
$EndComp
$Comp
L GND #PWR09
U 1 1 581DDF6D
P 9250 4850
F 0 "#PWR09" H 9250 4600 50  0001 C CNN
F 1 "GND" H 9250 4700 50  0000 C CNN
F 2 "" H 9250 4850 50  0000 C CNN
F 3 "" H 9250 4850 50  0000 C CNN
	1    9250 4850
	1    0    0    -1  
$EndComp
Text Label 10000 3300 2    60   ~ 0
OUT3
$Comp
L C C16
U 1 1 581DE04B
P 9950 2600
F 0 "C16" H 9975 2700 50  0000 L CNN
F 1 "0.1uf" H 9975 2500 50  0000 L CNN
F 2 "Capacitors_SMD:C_0603_HandSoldering" H 9988 2450 50  0001 C CNN
F 3 "" H 9950 2600 50  0000 C CNN
	1    9950 2600
	1    0    0    -1  
$EndComp
$Comp
L +5V #PWR010
U 1 1 581DE052
P 9950 2400
F 0 "#PWR010" H 9950 2250 50  0001 C CNN
F 1 "+5V" H 9950 2540 50  0000 C CNN
F 2 "" H 9950 2400 50  0000 C CNN
F 3 "" H 9950 2400 50  0000 C CNN
	1    9950 2400
	1    0    0    -1  
$EndComp
$Comp
L GND #PWR011
U 1 1 581DE059
P 9950 2800
F 0 "#PWR011" H 9950 2550 50  0001 C CNN
F 1 "GND" H 9950 2650 50  0000 C CNN
F 2 "" H 9950 2800 50  0000 C CNN
F 3 "" H 9950 2800 50  0000 C CNN
	1    9950 2800
	1    0    0    -1  
$EndComp
$Comp
L +5V #PWR012
U 1 1 581E937E
P 6300 1100
F 0 "#PWR012" H 6300 950 50  0001 C CNN
F 1 "+5V" H 6300 1240 50  0000 C CNN
F 2 "" H 6300 1100 50  0000 C CNN
F 3 "" H 6300 1100 50  0000 C CNN
	1    6300 1100
	1    0    0    -1  
$EndComp
$Comp
L +5V #PWR013
U 1 1 581E9882
P 3400 2750
F 0 "#PWR013" H 3400 2600 50  0001 C CNN
F 1 "+5V" H 3400 2890 50  0000 C CNN
F 2 "" H 3400 2750 50  0000 C CNN
F 3 "" H 3400 2750 50  0000 C CNN
	1    3400 2750
	1    0    0    -1  
$EndComp
$Comp
L +5V #PWR014
U 1 1 581E9A62
P 6350 2750
F 0 "#PWR014" H 6350 2600 50  0001 C CNN
F 1 "+5V" H 6350 2890 50  0000 C CNN
F 2 "" H 6350 2750 50  0000 C CNN
F 3 "" H 6350 2750 50  0000 C CNN
	1    6350 2750
	1    0    0    -1  
$EndComp
$Comp
L +5V #PWR015
U 1 1 581E9AEB
P 9250 2750
F 0 "#PWR015" H 9250 2600 50  0001 C CNN
F 1 "+5V" H 9250 2890 50  0000 C CNN
F 2 "" H 9250 2750 50  0000 C CNN
F 3 "" H 9250 2750 50  0000 C CNN
	1    9250 2750
	1    0    0    -1  
$EndComp
$Comp
L MIC5317 U4
U 1 1 581ECED4
P 7450 1250
F 0 "U4" H 7450 1250 60  0000 C CNN
F 1 "MIC5317" H 7450 1500 60  0000 C CNN
F 2 "TO_SOT_Packages_SMD:SOT-23-5" H 7450 1200 60  0001 C CNN
F 3 "" H 7450 1200 60  0000 C CNN
F 4 "Mouser" H 7450 1250 60  0001 C CNN "Distributor"
F 5 "998-MIC5317-3.3YM5TR " H 7450 1250 60  0001 C CNN "PN"
	1    7450 1250
	1    0    0    -1  
$EndComp
$Comp
L C C10
U 1 1 581ED63F
P 6850 1650
F 0 "C10" H 6875 1750 50  0000 L CNN
F 1 "0.1uf" H 6875 1550 50  0000 L CNN
F 2 "Capacitors_SMD:C_0603_HandSoldering" H 6888 1500 50  0001 C CNN
F 3 "" H 6850 1650 50  0000 C CNN
	1    6850 1650
	1    0    0    -1  
$EndComp
$Comp
L +5V #PWR016
U 1 1 581ED82B
P 6850 1100
F 0 "#PWR016" H 6850 950 50  0001 C CNN
F 1 "+5V" H 6850 1240 50  0000 C CNN
F 2 "" H 6850 1100 50  0000 C CNN
F 3 "" H 6850 1100 50  0000 C CNN
	1    6850 1100
	1    0    0    -1  
$EndComp
$Comp
L GND #PWR017
U 1 1 581EDA5C
P 7450 1950
F 0 "#PWR017" H 7450 1700 50  0001 C CNN
F 1 "GND" H 7450 1800 50  0000 C CNN
F 2 "" H 7450 1950 50  0000 C CNN
F 3 "" H 7450 1950 50  0000 C CNN
	1    7450 1950
	1    0    0    -1  
$EndComp
$Comp
L C C12
U 1 1 581EDDB1
P 8250 1700
F 0 "C12" H 8275 1800 50  0000 L CNN
F 1 "10uf" H 8275 1600 50  0000 L CNN
F 2 "Capacitors_SMD:C_0603_HandSoldering" H 8288 1550 50  0001 C CNN
F 3 "" H 8250 1700 50  0000 C CNN
	1    8250 1700
	1    0    0    -1  
$EndComp
$Comp
L C C13
U 1 1 581EDE69
P 8600 1700
F 0 "C13" H 8625 1800 50  0000 L CNN
F 1 "0.1uf" H 8625 1600 50  0000 L CNN
F 2 "Capacitors_SMD:C_0603_HandSoldering" H 8638 1550 50  0001 C CNN
F 3 "" H 8600 1700 50  0000 C CNN
	1    8600 1700
	1    0    0    -1  
$EndComp
$Comp
L +3.3V #PWR018
U 1 1 581EE3B3
P 8600 1100
F 0 "#PWR018" H 8600 950 50  0001 C CNN
F 1 "+3.3V" H 8600 1240 50  0000 C CNN
F 2 "" H 8600 1100 50  0000 C CNN
F 3 "" H 8600 1100 50  0000 C CNN
	1    8600 1100
	1    0    0    -1  
$EndComp
$Comp
L CONN_01X04 P2
U 1 1 581F69F1
P 1100 3250
F 0 "P2" H 1100 3500 50  0000 C CNN
F 1 "CAN_OUT" V 1200 3250 50  0000 C CNN
F 2 "User_Connectors:Molex-duraClick-4conn" V 1100 3250 50  0001 C CNN
F 3 "" H 1100 3250 50  0000 C CNN
F 4 "Mouser" H 1100 3250 60  0001 C CNN "Distributor"
F 5 "538-502352-0400 " H 1100 3250 60  0001 C CNN "PN"
	1    1100 3250
	-1   0    0    1   
$EndComp
$Comp
L GND #PWR019
U 1 1 581F69F8
P 1400 3400
F 0 "#PWR019" H 1400 3150 50  0001 C CNN
F 1 "GND" H 1400 3250 50  0000 C CNN
F 2 "" H 1400 3400 50  0000 C CNN
F 3 "" H 1400 3400 50  0000 C CNN
	1    1400 3400
	1    0    0    -1  
$EndComp
Text Label 1400 3200 0    60   ~ 0
CAN_H
Text Label 1400 3300 0    60   ~ 0
CAN_L
Text Label 1400 3100 0    60   ~ 0
Vin
Text Label 2700 6200 0    60   ~ 0
CAN_H
Text Label 2700 6300 0    60   ~ 0
CAN_L
Text Label 2700 6000 0    60   ~ 0
OUT1
Text Label 2700 5900 0    60   ~ 0
OUT2
Text Label 2700 5800 0    60   ~ 0
OUT3
$Comp
L CONN_01X04 P1
U 1 1 581F8F7F
P 1100 2650
F 0 "P1" H 1100 2900 50  0000 C CNN
F 1 "CAN_IN" V 1200 2650 50  0000 C CNN
F 2 "User_Connectors:Molex-duraClick-4conn" V 1100 2650 50  0001 C CNN
F 3 "" H 1100 2650 50  0000 C CNN
F 4 "Mouser" H 1100 2650 60  0001 C CNN "Distributor"
F 5 "538-502352-0400 " H 1100 2650 60  0001 C CNN "PN"
	1    1100 2650
	-1   0    0    1   
$EndComp
$Comp
L GND #PWR020
U 1 1 581F8F85
P 1400 2800
F 0 "#PWR020" H 1400 2550 50  0001 C CNN
F 1 "GND" H 1400 2650 50  0000 C CNN
F 2 "" H 1400 2800 50  0000 C CNN
F 3 "" H 1400 2800 50  0000 C CNN
	1    1400 2800
	1    0    0    -1  
$EndComp
Text Label 1400 2600 0    60   ~ 0
CAN_H
Text Label 1400 2700 0    60   ~ 0
CAN_L
Text Label 1400 2500 0    60   ~ 0
Vin
$Comp
L C_Small C2
U 1 1 581D38C6
P 3650 4600
F 0 "C2" H 3700 4500 50  0000 L CNN
F 1 "4.7nf" V 3550 4550 50  0000 L CNN
F 2 "Capacitors_SMD:C_0603_HandSoldering" H 3650 4600 50  0001 C CNN
F 3 "" H 3650 4600 50  0000 C CNN
	1    3650 4600
	-1   0    0    1   
$EndComp
$Comp
L GND #PWR021
U 1 1 5822C9BB
P 4300 3450
F 0 "#PWR021" H 4300 3200 50  0001 C CNN
F 1 "GND" H 4300 3300 50  0000 C CNN
F 2 "" H 4300 3450 50  0000 C CNN
F 3 "" H 4300 3450 50  0000 C CNN
	1    4300 3450
	1    0    0    -1  
$EndComp
$Comp
L GND #PWR022
U 1 1 5822D2B6
P 7250 3450
F 0 "#PWR022" H 7250 3200 50  0001 C CNN
F 1 "GND" H 7250 3300 50  0000 C CNN
F 2 "" H 7250 3450 50  0000 C CNN
F 3 "" H 7250 3450 50  0000 C CNN
	1    7250 3450
	1    0    0    -1  
$EndComp
$Comp
L GND #PWR023
U 1 1 5822D7EE
P 10250 3450
F 0 "#PWR023" H 10250 3200 50  0001 C CNN
F 1 "GND" H 10250 3300 50  0000 C CNN
F 2 "" H 10250 3450 50  0000 C CNN
F 3 "" H 10250 3450 50  0000 C CNN
	1    10250 3450
	1    0    0    -1  
$EndComp
Text Label 2750 3200 0    60   ~ 0
V1
Text Label 5700 3200 0    60   ~ 0
V2
Text Label 8600 3200 0    60   ~ 0
V3
Text Label 3900 5900 0    60   ~ 0
V2
Text Label 3900 5800 0    60   ~ 0
V3
Text Label 3900 6000 0    60   ~ 0
V1
$Sheet
S 3050 5600 750  850 
U 581EF7A1
F0 "Can Controller" 60
F1 "CanController.sch" 60
F2 "OUT1" I L 3050 5800 60 
F3 "OUT2" I L 3050 5900 60 
F4 "OUT3" I L 3050 6000 60 
F5 "CANH" O L 3050 6200 60 
F6 "CANL" O L 3050 6300 60 
F7 "V3" I R 3800 6000 60 
F8 "V2" I R 3800 5900 60 
F9 "V1" I R 3800 5800 60 
$EndSheet
Text Label 3750 1150 0    60   ~ 0
Vin
Text Label 1450 1050 0    60   ~ 0
Vin
Text Notes 725  800  0    60   ~ 0
Analog outputs directly from the current sensors
Text Notes 3525 825  0    60   ~ 0
PMOS as an ideal diode. \nWhen the gate goes below Vgs the transistor turns on.
$Comp
L CONN_01X04 S1
U 1 1 58BE2E84
P 2300 3200
F 0 "S1" V 2475 3200 50  0000 C CNN
F 1 "Ultra-Fit" V 2400 3200 50  0000 C CNN
F 2 "supermileage_footprints:Molex-UltraFit-4p" H 2300 3200 50  0001 C CNN
F 3 "" H 2300 3200 50  0000 C CNN
	1    2300 3200
	0    1    -1   0   
$EndComp
$Comp
L CONN_01X04 S2
U 1 1 58BE314B
P 5325 3200
F 0 "S2" V 5500 3200 50  0000 C CNN
F 1 "Ultra-Fit" V 5425 3200 50  0000 C CNN
F 2 "supermileage_footprints:Molex-UltraFit-4p" H 5325 3200 50  0001 C CNN
F 3 "" H 5325 3200 50  0000 C CNN
	1    5325 3200
	0    1    -1   0   
$EndComp
$Comp
L CONN_01X04 S3
U 1 1 58BE3885
P 8125 3200
F 0 "S3" H 8125 3450 50  0000 C CNN
F 1 "Ultra-Fit" V 8225 3200 50  0000 C CNN
F 2 "supermileage_footprints:Molex-UltraFit-4p" H 8125 3200 50  0001 C CNN
F 3 "" H 8125 3200 50  0000 C CNN
	1    8125 3200
	0    1    -1   0   
$EndComp
Wire Wire Line
	3650 4500 3650 4400
Wire Wire Line
	3650 4400 3500 4400
Wire Wire Line
	3500 4400 3500 4300
Wire Wire Line
	3400 4500 3400 4300
Wire Wire Line
	3300 4300 3300 4400
Wire Wire Line
	3300 4400 3200 4400
Wire Wire Line
	3400 4700 3400 4850
Wire Wire Line
	3400 2750 3400 2800
Wire Wire Line
	3200 4400 3200 4800
Wire Wire Line
	3200 4800 3650 4800
Connection ~ 3400 4800
Wire Wire Line
	2850 3200 2750 3200
Wire Wire Line
	2750 3200 2750 3500
Wire Wire Line
	2750 3300 2850 3300
Connection ~ 2750 3300
Wire Wire Line
	2250 3500 2850 3500
Connection ~ 2750 3400
Wire Wire Line
	2150 3600 2850 3600
Wire Wire Line
	2750 3600 2750 3900
Wire Wire Line
	2750 3800 2850 3800
Connection ~ 2750 3700
Wire Wire Line
	2750 3900 2850 3900
Connection ~ 2750 3800
Connection ~ 2750 3600
Connection ~ 2750 3500
Wire Wire Line
	4150 3300 3950 3300
Wire Wire Line
	1450 1150 1350 1150
Wire Wire Line
	1450 1250 1350 1250
Wire Wire Line
	1450 1350 1350 1350
Wire Wire Line
	4300 3400 3950 3400
Wire Wire Line
	4450 1150 4450 1500
Wire Wire Line
	4450 1350 4600 1350
Wire Wire Line
	4350 1150 4600 1150
Connection ~ 4450 1150
Connection ~ 4450 1350
Wire Wire Line
	4450 1800 4450 1900
Wire Wire Line
	4150 1900 6300 1900
Wire Wire Line
	5100 1800 5100 1950
Connection ~ 5100 1900
Wire Wire Line
	5700 1900 5700 1800
Wire Wire Line
	6000 1900 6000 1800
Connection ~ 5700 1900
Wire Wire Line
	6300 1900 6300 1800
Connection ~ 6000 1900
Wire Wire Line
	5700 1500 5700 1350
Wire Wire Line
	5700 1350 5600 1350
Wire Wire Line
	6000 1500 6000 1150
Wire Wire Line
	5600 1150 6300 1150
Wire Wire Line
	6300 1100 6300 1500
Connection ~ 6000 1150
Wire Wire Line
	4150 1450 4150 1900
Connection ~ 4450 1900
Wire Wire Line
	3950 1150 3750 1150
Wire Wire Line
	1350 1050 1450 1050
Wire Wire Line
	1450 1500 1450 1450
Wire Wire Line
	1450 1450 1350 1450
Wire Wire Line
	4100 2400 4100 2450
Wire Wire Line
	4100 2800 4100 2750
Wire Wire Line
	6600 4500 6600 4400
Wire Wire Line
	6600 4400 6450 4400
Wire Wire Line
	6450 4400 6450 4300
Wire Wire Line
	6350 4500 6350 4300
Wire Wire Line
	6600 4800 6600 4700
Wire Wire Line
	6250 4300 6250 4400
Wire Wire Line
	6250 4400 6150 4400
Wire Wire Line
	6350 4700 6350 4850
Wire Wire Line
	6350 2750 6350 2800
Wire Wire Line
	6150 4400 6150 4800
Wire Wire Line
	6150 4800 6600 4800
Connection ~ 6350 4800
Wire Wire Line
	5800 3200 5700 3200
Wire Wire Line
	5700 3200 5700 3500
Wire Wire Line
	5700 3300 5800 3300
Wire Wire Line
	5700 3400 5800 3400
Connection ~ 5700 3300
Wire Wire Line
	5275 3500 5800 3500
Connection ~ 5700 3400
Wire Wire Line
	5175 3600 5800 3600
Wire Wire Line
	5700 3600 5700 3900
Wire Wire Line
	5700 3800 5800 3800
Connection ~ 5700 3700
Wire Wire Line
	5700 3900 5800 3900
Connection ~ 5700 3800
Connection ~ 5700 3600
Connection ~ 5700 3500
Wire Wire Line
	7100 3300 6900 3300
Wire Wire Line
	7250 3400 6900 3400
Wire Wire Line
	7050 2400 7050 2450
Wire Wire Line
	7050 2800 7050 2750
Wire Wire Line
	9500 4500 9500 4400
Wire Wire Line
	9500 4400 9350 4400
Wire Wire Line
	9350 4400 9350 4300
Wire Wire Line
	9250 4500 9250 4300
Wire Wire Line
	9500 4800 9500 4700
Wire Wire Line
	9150 4300 9150 4400
Wire Wire Line
	9150 4400 9050 4400
Wire Wire Line
	9250 4700 9250 4850
Wire Wire Line
	9250 2750 9250 2800
Wire Wire Line
	9050 4400 9050 4800
Wire Wire Line
	9050 4800 9500 4800
Connection ~ 9250 4800
Wire Wire Line
	8700 3200 8600 3200
Wire Wire Line
	8600 3200 8600 3500
Wire Wire Line
	8600 3300 8700 3300
Connection ~ 8600 3300
Wire Wire Line
	8075 3500 8700 3500
Connection ~ 8600 3400
Wire Wire Line
	7975 3600 8700 3600
Wire Wire Line
	8600 3600 8600 3900
Wire Wire Line
	8600 3800 8700 3800
Connection ~ 8600 3700
Wire Wire Line
	8600 3900 8700 3900
Connection ~ 8600 3800
Connection ~ 8600 3600
Connection ~ 8600 3500
Wire Wire Line
	10000 3300 9800 3300
Wire Wire Line
	9950 2400 9950 2450
Wire Wire Line
	9950 2800 9950 2750
Connection ~ 6300 1150
Wire Wire Line
	6850 1350 6950 1350
Wire Wire Line
	6850 1100 6850 1500
Wire Wire Line
	6950 1150 6850 1150
Connection ~ 6850 1150
Connection ~ 6850 1350
Wire Wire Line
	6850 1800 6850 1900
Wire Wire Line
	6850 1900 8600 1900
Wire Wire Line
	7450 1800 7450 1950
Connection ~ 7450 1900
Wire Wire Line
	7950 1900 7950 1350
Wire Wire Line
	7950 1150 8600 1150
Wire Wire Line
	8250 1150 8250 1550
Wire Wire Line
	8600 1100 8600 1550
Connection ~ 8250 1150
Wire Wire Line
	8250 1900 8250 1850
Connection ~ 7950 1900
Wire Wire Line
	8600 1900 8600 1850
Connection ~ 8250 1900
Connection ~ 8600 1150
Wire Wire Line
	1400 3400 1300 3400
Wire Wire Line
	1300 3100 1400 3100
Wire Wire Line
	1400 3200 1300 3200
Wire Wire Line
	1400 3300 1300 3300
Wire Wire Line
	2700 6200 3050 6200
Wire Wire Line
	2700 6300 3050 6300
Wire Wire Line
	2700 6000 3050 6000
Wire Wire Line
	2700 5900 3050 5900
Wire Wire Line
	2700 5800 3050 5800
Wire Wire Line
	1400 2800 1300 2800
Wire Wire Line
	1300 2500 1400 2500
Wire Wire Line
	1400 2600 1300 2600
Wire Wire Line
	1400 2700 1300 2700
Wire Wire Line
	3800 6000 3900 6000
Wire Wire Line
	3800 5900 3900 5900
Wire Wire Line
	3800 5800 3900 5800
Wire Wire Line
	3650 4800 3650 4700
Wire Wire Line
	4300 3450 4300 3400
Wire Wire Line
	7250 3450 7250 3400
Wire Wire Line
	10250 3400 10250 3450
Wire Wire Line
	10250 3400 9800 3400
Wire Wire Line
	5275 3500 5275 3400
Wire Wire Line
	5375 3600 5375 3400
Wire Wire Line
	5700 3700 5800 3700
Wire Wire Line
	5475 3400 5475 3500
Connection ~ 5475 3500
Wire Wire Line
	5175 3600 5175 3400
Connection ~ 5375 3600
Wire Wire Line
	2850 3400 2750 3400
Wire Wire Line
	2450 3500 2450 3400
Wire Wire Line
	2250 3500 2250 3400
Connection ~ 2450 3500
Wire Wire Line
	2350 3600 2350 3400
Wire Wire Line
	2150 3400 2150 3600
Connection ~ 2350 3600
Wire Wire Line
	2850 3700 2750 3700
Wire Wire Line
	8600 3400 8700 3400
Wire Wire Line
	8275 3500 8275 3400
Wire Wire Line
	8075 3400 8075 3500
Connection ~ 8275 3500
Wire Wire Line
	8175 3600 8175 3400
Wire Wire Line
	7975 3400 7975 3600
Connection ~ 8175 3600
Wire Wire Line
	8600 3700 8700 3700
$EndSCHEMATC
