G04 #@! TF.FileFunction,Profile,NP*
%FSLAX46Y46*%
G04 Gerber Fmt 4.6, Leading zero omitted, Abs format (unit mm)*
G04 Created by KiCad (PCBNEW 4.0.2+dfsg1-stable) date Wed 10 Aug 2016 05:05:02 PM CDT*
%MOMM*%
G01*
G04 APERTURE LIST*
%ADD10C,0.090000*%
%ADD11C,0.150000*%
G04 APERTURE END LIST*
D10*
D11*
X175895000Y-150495000D02*
X130810000Y-150495000D01*
X175895000Y-128270000D02*
X175895000Y-150495000D01*
X130810000Y-128270000D02*
X175895000Y-128270000D01*
X130810000Y-150495000D02*
X130810000Y-128270000D01*
M02*
