EESchema Schematic File Version 2
LIBS:Version1-rescue
LIBS:power
LIBS:device
LIBS:transistors
LIBS:conn
LIBS:linear
LIBS:regul
LIBS:74xx
LIBS:cmos4000
LIBS:adc-dac
LIBS:memory
LIBS:xilinx
LIBS:microcontrollers
LIBS:dsp
LIBS:microchip
LIBS:analog_switches
LIBS:motorola
LIBS:texas
LIBS:intel
LIBS:audio
LIBS:interface
LIBS:digital-audio
LIBS:philips
LIBS:display
LIBS:cypress
LIBS:siliconi
LIBS:opto
LIBS:atmel
LIBS:contrib
LIBS:valves
LIBS:Supermileage
LIBS:Version1-cache
EELAYER 25 0
EELAYER END
$Descr A4 11693 8268
encoding utf-8
Sheet 12 13
Title ""
Date ""
Rev ""
Comp ""
Comment1 ""
Comment2 ""
Comment3 ""
Comment4 ""
$EndDescr
$Comp
L CM3626 U?
U 1 1 587B126D
P 5750 4225
F 0 "U?" H 5800 5625 60  0000 C CNN
F 1 "CM3626" H 5800 5525 60  0000 C CNN
F 2 "" H 5750 4225 60  0000 C CNN
F 3 "" H 5750 4225 60  0000 C CNN
	1    5750 4225
	1    0    0    -1  
$EndComp
Text Label 4800 2625 2    60   ~ 0
SYSTEM_V
$Comp
L CONN_01X18 J?
U 1 1 587B126E
P 2550 5825
F 0 "J?" H 2550 6775 50  0000 C CNN
F 1 "CONN_01X18" V 2650 5825 50  0000 C CNN
F 2 "" H 2550 5825 50  0000 C CNN
F 3 "" H 2550 5825 50  0000 C CNN
	1    2550 5825
	-1   0    0    -1  
$EndComp
$Comp
L CONN_01X18 J?
U 1 1 587B126F
P 2550 3925
F 0 "J?" H 2550 4875 50  0000 C CNN
F 1 "CONN_01X18" V 2650 3925 50  0000 C CNN
F 2 "" H 2550 3925 50  0000 C CNN
F 3 "" H 2550 3925 50  0000 C CNN
	1    2550 3925
	-1   0    0    -1  
$EndComp
$Comp
L CONN_01X18 J?
U 1 1 587B1270
P 2550 2025
F 0 "J?" H 2550 2975 50  0000 C CNN
F 1 "CONN_01X18" V 2650 2025 50  0000 C CNN
F 2 "" H 2550 2025 50  0000 C CNN
F 3 "" H 2550 2025 50  0000 C CNN
	1    2550 2025
	-1   0    0    -1  
$EndComp
$Comp
L CONN_01X18 J?
U 1 1 587B1271
P 8575 5175
F 0 "J?" H 8575 6125 50  0000 C CNN
F 1 "CONN_01X18" V 8675 5175 50  0000 C CNN
F 2 "" H 8575 5175 50  0000 C CNN
F 3 "" H 8575 5175 50  0000 C CNN
	1    8575 5175
	1    0    0    -1  
$EndComp
$Comp
L CONN_01X18 J?
U 1 1 587B1272
P 8575 3275
F 0 "J?" H 8575 4225 50  0000 C CNN
F 1 "CONN_01X18" V 8675 3275 50  0000 C CNN
F 2 "" H 8575 3275 50  0000 C CNN
F 3 "" H 8575 3275 50  0000 C CNN
	1    8575 3275
	1    0    0    -1  
$EndComp
$Comp
L CONN_01X18 J?
U 1 1 587B1273
P 2250 2025
F 0 "J?" H 2250 2975 50  0000 C CNN
F 1 "CONN_01X18" V 2350 2025 50  0000 C CNN
F 2 "" H 2250 2025 50  0000 C CNN
F 3 "" H 2250 2025 50  0000 C CNN
	1    2250 2025
	1    0    0    -1  
$EndComp
$Comp
L CONN_01X18 J?
U 1 1 587B1274
P 2250 3925
F 0 "J?" H 2250 4875 50  0000 C CNN
F 1 "CONN_01X18" V 2350 3925 50  0000 C CNN
F 2 "" H 2250 3925 50  0000 C CNN
F 3 "" H 2250 3925 50  0000 C CNN
	1    2250 3925
	1    0    0    -1  
$EndComp
$Comp
L CONN_01X18 J?
U 1 1 587B1275
P 2250 5825
F 0 "J?" H 2250 6775 50  0000 C CNN
F 1 "CONN_01X18" V 2350 5825 50  0000 C CNN
F 2 "" H 2250 5825 50  0000 C CNN
F 3 "" H 2250 5825 50  0000 C CNN
	1    2250 5825
	1    0    0    -1  
$EndComp
$Comp
L CONN_01X18 J?
U 1 1 587B1276
P 8900 3275
F 0 "J?" H 8900 4225 50  0000 C CNN
F 1 "CONN_01X18" V 9000 3275 50  0000 C CNN
F 2 "" H 8900 3275 50  0000 C CNN
F 3 "" H 8900 3275 50  0000 C CNN
	1    8900 3275
	-1   0    0    -1  
$EndComp
$Comp
L CONN_01X18 J?
U 1 1 587B1277
P 8900 5175
F 0 "J?" H 8900 6125 50  0000 C CNN
F 1 "CONN_01X18" V 9000 5175 50  0000 C CNN
F 2 "" H 8900 5175 50  0000 C CNN
F 3 "" H 8900 5175 50  0000 C CNN
	1    8900 5175
	-1   0    0    -1  
$EndComp
Text HLabel 1775 1175 0    60   Input ~ 0
J1_1_POWER
Text HLabel 1775 1275 0    60   Input ~ 0
J1_2_POWER
Text HLabel 1775 1375 0    60   Input ~ 0
J1_3_POWER
Text HLabel 1775 1775 0    60   Input ~ 0
J1_7_POWER
Text HLabel 1775 1875 0    60   Input ~ 0
J1_8_POWER
Text HLabel 1775 1975 0    60   Input ~ 0
J1_9_POWER
Wire Wire Line
	1775 1175 2050 1175
Wire Wire Line
	2050 1275 1775 1275
Wire Wire Line
	1775 1375 2050 1375
Wire Wire Line
	2050 1775 1775 1775
Wire Wire Line
	1775 1875 2050 1875
Wire Wire Line
	2050 1975 1775 1975
Text HLabel 1775 2175 0    60   Input ~ 0
J1_11_WHEEL_TACH
Wire Wire Line
	1775 2175 2050 2175
Text HLabel 9500 6025 2    60   Input ~ 0
J5_18_MAIN_POWER
Text HLabel 1775 2875 0    60   Input ~ 0
J1_18_ELECTRONICS_FAN
Text HLabel 1775 2775 0    60   Input ~ 0
J1_17_ENGINE_FAN
Wire Wire Line
	1775 2775 2050 2775
Wire Wire Line
	2050 2875 1775 2875
Wire Wire Line
	9500 6025 9100 6025
Text HLabel 9500 5425 2    60   Input ~ 0
J5_12_GND
Text HLabel 1775 2275 0    60   Input ~ 0
J1_12_GND
Wire Wire Line
	1775 2275 2050 2275
Text HLabel 9500 5525 2    60   Input ~ 0
J5_13_HORN
Text HLabel 9500 4525 2    60   Input ~ 0
J5_3_PITOT_TEMP
Text HLabel 9500 4625 2    60   Input ~ 0
J5_4_CURRENT_SENSOR
Text HLabel 9500 4725 2    60   Input ~ 0
J5_5_PITOT_DATA
Text HLabel 9500 5725 2    60   Input ~ 0
J5_15_SYSTEM_V
Text HLabel 9500 5825 2    60   Input ~ 0
J5_16_DRIVE_ARM_STATUS
Text HLabel 9500 5225 2    60   Input ~ 0
J5_10_HIGH_PRES_EFI
Text HLabel 9500 5125 2    60   Input ~ 0
J5_9_LOW_PRES_EFI
Text HLabel 9500 5325 2    60   Input ~ 0
J5_11_EXHAUST_TEMP
Text HLabel 1775 2375 0    60   Input ~ 0
J1_13_ENGINE_START
Text HLabel 1775 2475 0    60   Input ~ 0
J1_14_ENGINE_STOP
Wire Wire Line
	1775 2375 2050 2375
Wire Wire Line
	2050 2475 1775 2475
Wire Wire Line
	9100 4525 9500 4525
Wire Wire Line
	9500 4625 9100 4625
Wire Wire Line
	9100 4725 9500 4725
Wire Wire Line
	9500 5125 9100 5125
Wire Wire Line
	9100 5225 9500 5225
Wire Wire Line
	9500 5325 9100 5325
Wire Wire Line
	9100 5425 9500 5425
Wire Wire Line
	9500 5525 9100 5525
Wire Wire Line
	9100 5725 9500 5725
Wire Wire Line
	9500 5825 9100 5825
Text Label 4800 6025 2    60   ~ 0
WHEEL_TACK
Text Label 6800 5725 0    60   ~ 0
HORN
Text Label 6800 5125 0    60   ~ 0
ENGINE_START
Text Label 6800 5225 0    60   ~ 0
ENGINE_STOP
Text Label 6050 6875 3    60   ~ 0
GND
Text Label 5550 6875 3    60   ~ 0
GND
Text Label 6800 4225 0    60   ~ 0
ENGINE_FAN
Text Label 6800 4125 0    60   ~ 0
ELECTRONIC_FAN
Text Label 4800 2725 2    60   ~ 0
DRIVE_ARM
Text Label 4800 3125 2    60   ~ 0
PITOT_DATA
Text Label 4800 3225 2    60   ~ 0
LOW_PRES_EFI
Text Label 4800 3325 2    60   ~ 0
HIGH_PRES_EFI
Text Label 4800 3425 2    60   ~ 0
EXHAUST_TEMP
Text Label 4800 3525 2    60   ~ 0
PITOT_TEMP
Text Label 5750 1225 1    60   ~ 0
POWER
Text Label 5850 1225 1    60   ~ 0
POWER
Text Label 5950 1225 1    60   ~ 0
POWER
Text Label 6050 1225 1    60   ~ 0
POWER
Text Label 6150 1225 1    60   ~ 0
POWER
Text Label 6250 1225 1    60   ~ 0
POWER
Text Label 5350 1225 1    60   ~ 0
POWER_MAIN
Text Label 2925 1175 0    60   ~ 0
POWER
Text Label 2925 1275 0    60   ~ 0
POWER
Text Label 2925 1375 0    60   ~ 0
POWER
Text Label 2925 1775 0    60   ~ 0
POWER
Text Label 2925 1875 0    60   ~ 0
POWER
Text Label 2925 1975 0    60   ~ 0
POWER
Text Label 2925 2175 0    60   ~ 0
WHEEL_TACK
Text Label 2925 2275 0    60   ~ 0
GND
Text Label 2925 2375 0    60   ~ 0
ENGINE_START
Text Label 2925 2475 0    60   ~ 0
ENGINE_STOP
Text Label 2925 2875 0    60   ~ 0
ELECTRONIC_FAN
Text Label 2925 2775 0    60   ~ 0
ENGINE_FAN
Text Label 8200 5425 2    60   ~ 0
GND
Text Label 8200 5525 2    60   ~ 0
HORN
Text Label 4800 3025 2    60   ~ 0
SYSTEM_CURRENT
Text Label 8200 4625 2    60   ~ 0
SYSTEM_CURRENT
Text Label 8200 4725 2    60   ~ 0
PITOT_DATA
Text Label 8200 4525 2    60   ~ 0
PITOT_TEMP
Text Label 8200 5325 2    60   ~ 0
EXHAUST_TEMP
Text Label 8200 5225 2    60   ~ 0
HIGH_PRES_EFI
Text Label 8200 5125 2    60   ~ 0
LOW_PRES_EFI
Text Label 8200 5725 2    60   ~ 0
SYSTEM_V
Text Label 8200 5825 2    60   ~ 0
DRIVE_ARM
Text Label 8200 6025 2    60   ~ 0
POWER_MAIN
Wire Wire Line
	8200 4525 8375 4525
Wire Wire Line
	8375 4625 8200 4625
Wire Wire Line
	8200 4725 8375 4725
Wire Wire Line
	8200 5125 8375 5125
Wire Wire Line
	8200 5225 8375 5225
Wire Wire Line
	8375 5325 8200 5325
Wire Wire Line
	8200 5425 8375 5425
Wire Wire Line
	8375 5525 8200 5525
Wire Wire Line
	8200 5725 8375 5725
Wire Wire Line
	8200 5825 8375 5825
Wire Wire Line
	8375 6025 8200 6025
Wire Wire Line
	6600 4125 6800 4125
Wire Wire Line
	6800 4225 6600 4225
Wire Wire Line
	6600 5125 6800 5125
Wire Wire Line
	6800 5225 6600 5225
Wire Wire Line
	6600 5725 6800 5725
Wire Wire Line
	4800 6025 5000 6025
Wire Wire Line
	6050 6875 6050 6725
Wire Wire Line
	5550 6875 5550 6725
Wire Wire Line
	6250 1225 6250 1325
Wire Wire Line
	6150 1225 6150 1325
Wire Wire Line
	6050 1325 6050 1225
Wire Wire Line
	5950 1225 5950 1325
Wire Wire Line
	5850 1325 5850 1225
Wire Wire Line
	5750 1225 5750 1325
Wire Wire Line
	5350 1325 5350 1225
Wire Wire Line
	2750 1175 2925 1175
Wire Wire Line
	2925 1275 2750 1275
Wire Wire Line
	2750 1375 2925 1375
Wire Wire Line
	2925 1775 2750 1775
Wire Wire Line
	2925 1875 2750 1875
Wire Wire Line
	2750 1975 2925 1975
Wire Wire Line
	2925 2175 2750 2175
Wire Wire Line
	2750 2275 2925 2275
Wire Wire Line
	2925 2375 2750 2375
Wire Wire Line
	2750 2475 2925 2475
Wire Wire Line
	2925 2775 2750 2775
Wire Wire Line
	2925 2875 2750 2875
Wire Wire Line
	4800 2625 5000 2625
Wire Wire Line
	5000 2725 4800 2725
Wire Wire Line
	4800 3025 5000 3025
Wire Wire Line
	5000 3125 4800 3125
Wire Wire Line
	4800 3225 5000 3225
Wire Wire Line
	5000 3325 4800 3325
Wire Wire Line
	4800 3425 5000 3425
Wire Wire Line
	4800 3525 5000 3525
Text HLabel 9500 4925 2    60   Input ~ 0
J5_7_5V_POWER
Wire Wire Line
	9500 4925 9100 4925
Text HLabel 9500 5625 2    60   Input ~ 0
J5_14_5V_GND
Wire Wire Line
	9500 5625 9100 5625
Text HLabel 1775 1675 0    60   Input ~ 0
J1_6_IO_ENABLE
Wire Wire Line
	1775 1675 2050 1675
Wire Wire Line
	2750 1675 2925 1675
Text Label 2925 1675 0    60   ~ 0
ENABLE_IO
$EndSCHEMATC
