EESchema Schematic File Version 2
LIBS:Version1-rescue
LIBS:power
LIBS:device
LIBS:transistors
LIBS:conn
LIBS:linear
LIBS:regul
LIBS:74xx
LIBS:cmos4000
LIBS:adc-dac
LIBS:memory
LIBS:xilinx
LIBS:microcontrollers
LIBS:dsp
LIBS:microchip
LIBS:analog_switches
LIBS:motorola
LIBS:texas
LIBS:intel
LIBS:audio
LIBS:interface
LIBS:digital-audio
LIBS:philips
LIBS:display
LIBS:cypress
LIBS:siliconi
LIBS:opto
LIBS:atmel
LIBS:contrib
LIBS:valves
LIBS:Supermileage
LIBS:Version1-cache
EELAYER 25 0
EELAYER END
$Descr A4 11693 8268
encoding utf-8
Sheet 5 13
Title ""
Date ""
Rev ""
Comp "Cedarville University"
Comment1 ""
Comment2 ""
Comment3 ""
Comment4 ""
$EndDescr
$Comp
L CONN_01X06 P?
U 1 1 5802823B
P 4350 1925
F 0 "P?" H 4350 2275 50  0001 C CNN
F 1 "CONN_01X06" V 4450 1925 50  0001 C CNN
F 2 "" H 4350 1925 50  0000 C CNN
F 3 "" H 4350 1925 50  0000 C CNN
	1    4350 1925
	-1   0    0    -1  
$EndComp
$Comp
L CONN_01X06 P?
U 1 1 580282AA
P 4200 1925
F 0 "P?" H 4200 2275 50  0001 C CNN
F 1 "Front Lights" H 4275 2300 50  0000 C CNN
F 2 "" H 4200 1925 50  0000 C CNN
F 3 "" H 4200 1925 50  0000 C CNN
	1    4200 1925
	1    0    0    -1  
$EndComp
$Comp
L CONN_01X06 P?
U 1 1 5802832D
P 3600 1275
F 0 "P?" H 3600 1625 50  0001 C CNN
F 1 "Right Lights" V 3700 1275 50  0000 C CNN
F 2 "" H 3600 1275 50  0000 C CNN
F 3 "" H 3600 1275 50  0000 C CNN
	1    3600 1275
	0    -1   -1   0   
$EndComp
$Comp
L CONN_01X06 P?
U 1 1 58028372
P 2800 1275
F 0 "P?" H 2800 1625 50  0001 C CNN
F 1 "Left Lights" V 2900 1275 50  0000 C CNN
F 2 "" H 2800 1275 50  0000 C CNN
F 3 "" H 2800 1275 50  0000 C CNN
	1    2800 1275
	0    -1   -1   0   
$EndComp
$Comp
L CONN_01X02 P?
U 1 1 58028769
P 5750 3675
F 0 "P?" H 5750 3825 50  0000 C CNN
F 1 "CONN_01X02" V 5850 3675 50  0001 C CNN
F 2 "" H 5750 3675 50  0000 C CNN
F 3 "" H 5750 3675 50  0000 C CNN
	1    5750 3675
	0    -1   1    0   
$EndComp
$Comp
L CONN_01X02 P?
U 1 1 5802879B
P 5175 3675
F 0 "P?" H 5175 3825 50  0000 C CNN
F 1 "CONN_01X02" V 5275 3675 50  0000 C CNN
F 2 "" H 5175 3675 50  0000 C CNN
F 3 "" H 5175 3675 50  0000 C CNN
	1    5175 3675
	0    -1   1    0   
$EndComp
Text Notes 5850 3825 2    60   ~ 0
Horn
Text Notes 6425 3825 2    60   ~ 0
Wiper
Text Notes 7125 3825 2    60   ~ 0
Accelerator
Text Notes 5075 3400 1    60   ~ 0
Parking Brake & Brake
$Comp
L CONN_01X02 P?
U 1 1 58028EF7
P 5175 3875
F 0 "P?" H 5175 4025 50  0000 C CNN
F 1 "CONN_01X02" V 5275 3875 50  0000 C CNN
F 2 "" H 5175 3875 50  0000 C CNN
F 3 "" H 5175 3875 50  0000 C CNN
	1    5175 3875
	0    -1   -1   0   
$EndComp
$Comp
L CONN_01X02 P?
U 1 1 58028F8A
P 5750 3900
F 0 "P?" H 5750 4050 50  0000 C CNN
F 1 "CONN_01X02" V 5850 3900 50  0001 C CNN
F 2 "" H 5750 3900 50  0000 C CNN
F 3 "" H 5750 3900 50  0000 C CNN
	1    5750 3900
	0    -1   -1   0   
$EndComp
$Comp
L SW_SPST SW?
U 1 1 580290A9
P 5275 4525
F 0 "SW?" H 5275 4675 60  0000 C CNN
F 1 "SW_SPST" H 5275 4425 60  0000 C CNN
F 2 "" H 5275 4525 60  0000 C CNN
F 3 "" H 5275 4525 60  0000 C CNN
	1    5275 4525
	0    1    1    0   
$EndComp
$Comp
L SW_SPST SW?
U 1 2 58029195
P 5275 5125
F 0 "SW?" H 5275 5275 60  0000 C CNN
F 1 "SW_SPST" H 5275 5025 60  0000 C CNN
F 2 "" H 5275 5125 60  0000 C CNN
F 3 "" H 5275 5125 60  0000 C CNN
	1    5275 5125
	0    1    1    0   
$EndComp
$Comp
L Horn SP?
U 1 1 58029492
P 5750 4325
F 0 "SP?" H 5750 4725 60  0000 C CNN
F 1 "Horn" H 5750 4625 60  0000 C CNN
F 2 "" H 5750 4325 60  0000 C CNN
F 3 "" H 5750 4325 60  0000 C CNN
	1    5750 4325
	-1   0    0    1   
$EndComp
Text HLabel 8525 1675 2    60   Input ~ 0
Ov1LftBlnk
Text HLabel 8525 1775 2    60   Input ~ 0
Ov2RtBlnk
Text HLabel 8525 1875 2    60   Input ~ 0
Ov3
Text HLabel 8525 1975 2    60   Input ~ 0
Ov4
Text HLabel 8525 2075 2    60   Input ~ 0
Ov5
Text HLabel 8525 2175 2    60   Input ~ 0
Ov6Brake1
Text HLabel 8525 2275 2    60   Input ~ 0
Ov7BBrake2
Text HLabel 8525 2375 2    60   Input ~ 0
Ov8Horn
Text HLabel 8525 2475 2    60   Input ~ 0
Ov9WiperPwr
Text HLabel 8525 2575 2    60   Input ~ 0
Ov10WiperPwr
Text HLabel 8525 2675 2    60   Input ~ 0
Ov11AcceleratorYellow
Text HLabel 8525 2775 2    60   Input ~ 0
Ov12AcceleratorRed
Text Label 6200 5475 3    60   ~ 0
ChassisGnd
$Comp
L Motor M?
U 1 1 5878621A
P 6200 5050
F 0 "M?" H 6200 5050 60  0000 C CNN
F 1 "Motor" H 6200 4850 60  0000 C CNN
F 2 "" H 6200 5050 60  0000 C CNN
F 3 "" H 6200 5050 60  0000 C CNN
	1    6200 5050
	0    1    1    0   
$EndComp
$Comp
L CONN_01X15 P?
U 1 1 588CF2EA
P 8025 2375
F 0 "P?" H 8025 3175 50  0000 C CNN
F 1 "CONN_01X15" V 8125 2375 50  0001 C CNN
F 2 "" H 8025 2375 50  0000 C CNN
F 3 "" H 8025 2375 50  0000 C CNN
	1    8025 2375
	1    0    0    -1  
$EndComp
$Comp
L CONN_01X15 P?
U 1 1 588CF383
P 8250 2375
F 0 "P?" H 8250 3175 50  0000 C CNN
F 1 "CONN_01X15" V 8350 2375 50  0001 C CNN
F 2 "" H 8250 2375 50  0000 C CNN
F 3 "" H 8250 2375 50  0000 C CNN
	1    8250 2375
	-1   0    0    -1  
$EndComp
$Comp
L Throttle U?
U 1 1 588CFC7C
P 6875 4550
F 0 "U?" H 6525 4550 60  0000 C CNN
F 1 "Throttle" H 6675 4300 60  0000 C CNN
F 2 "" H 6875 4650 60  0000 C CNN
F 3 "" H 6875 4650 60  0000 C CNN
	1    6875 4550
	0    1    -1   0   
$EndComp
Wire Wire Line
	4000 1675 2850 1675
Wire Wire Line
	2850 1675 2850 1475
Wire Wire Line
	4000 1775 3650 1775
Wire Wire Line
	3650 1775 3650 1475
Wire Wire Line
	3850 2175 4000 2175
Wire Wire Line
	3800 1575 3050 1575
Wire Wire Line
	3050 1575 3050 1475
Wire Wire Line
	3800 1575 3850 1475
Wire Wire Line
	3850 1475 3850 2175
Wire Wire Line
	3550 1475 3500 1775
Wire Wire Line
	3500 1775 2750 1775
Wire Wire Line
	2750 1775 2750 1475
Wire Wire Line
	4000 1875 3550 1875
Wire Wire Line
	3550 1875 3550 1475
Wire Wire Line
	3450 1475 3400 1875
Wire Wire Line
	3400 1875 2650 1875
Wire Wire Line
	2650 1875 2650 1475
Wire Wire Line
	4000 1975 3450 1975
Wire Wire Line
	3450 1975 3450 1475
Wire Wire Line
	3350 1475 3300 1975
Wire Wire Line
	3300 1975 2550 1975
Wire Wire Line
	2550 1975 2550 1475
Wire Wire Line
	4000 2075 3350 2075
Wire Wire Line
	3350 2075 3350 1475
Wire Wire Line
	7025 2775 7025 3475
Wire Wire Line
	7025 2775 7825 2775
Wire Wire Line
	6925 3475 6925 2675
Wire Wire Line
	6925 2675 7825 2675
Wire Wire Line
	6350 3475 6350 2575
Wire Wire Line
	6350 2575 7825 2575
Wire Wire Line
	6150 3475 6150 2475
Wire Wire Line
	6150 2475 7825 2475
Wire Wire Line
	5700 3475 5700 2375
Wire Wire Line
	5700 2375 7825 2375
Wire Wire Line
	5225 3475 5225 2275
Wire Wire Line
	5225 2275 7825 2275
Wire Wire Line
	5125 3475 5125 2175
Wire Wire Line
	5125 2175 7825 2175
Wire Wire Line
	5275 4325 5275 4075
Wire Wire Line
	5275 4075 5225 4075
Wire Wire Line
	5275 4725 5275 4925
Wire Wire Line
	5275 5325 5275 5475
Wire Wire Line
	5275 5475 5125 5475
Wire Wire Line
	5125 5475 5125 4075
Wire Wire Line
	5700 4325 5700 4325
Wire Wire Line
	5700 4325 5700 4100
Wire Wire Line
	5800 4325 5800 4100
Wire Wire Line
	6200 4100 6200 4750
Wire Wire Line
	4550 1675 7825 1675
Wire Wire Line
	4550 1775 7825 1775
Wire Wire Line
	4550 1875 7825 1875
Wire Wire Line
	4550 1975 7825 1975
Wire Wire Line
	4550 2075 7825 2075
Wire Wire Line
	6200 5475 6200 5350
Wire Wire Line
	6725 3475 6725 2975
Wire Wire Line
	6925 4350 6925 4300
Wire Wire Line
	6925 4300 6825 4200
Wire Wire Line
	6825 4300 6825 4350
Wire Wire Line
	6825 4300 6925 4200
Wire Wire Line
	6925 4200 6925 4200
Wire Wire Line
	6925 4200 6925 4100
$Comp
L CONN_01X04 P?
U 1 1 588D0ECE
P 6875 3675
F 0 "P?" H 6875 3925 50  0000 C CNN
F 1 "CONN_01X04" V 6975 3675 50  0001 C CNN
F 2 "" H 6875 3675 50  0000 C CNN
F 3 "" H 6875 3675 50  0000 C CNN
	1    6875 3675
	0    1    1    0   
$EndComp
$Comp
L CONN_01X04 P?
U 1 1 588D113B
P 6875 3900
F 0 "P?" H 6875 4150 50  0000 C CNN
F 1 "CONN_01X04" V 6975 3900 50  0001 C CNN
F 2 "" H 6875 3900 50  0000 C CNN
F 3 "" H 6875 3900 50  0000 C CNN
	1    6875 3900
	0    1    -1   0   
$EndComp
Wire Wire Line
	7025 4350 7025 4100
Wire Wire Line
	6825 4200 6725 4200
Wire Wire Line
	6725 4200 6725 4100
Wire Wire Line
	6725 2975 7825 2975
Wire Wire Line
	4550 2175 4600 2175
Wire Wire Line
	4600 2175 4600 1600
Wire Wire Line
	4600 1600 6825 1600
Wire Wire Line
	6825 1600 6825 2875
Wire Wire Line
	6825 2875 7825 2875
$Comp
L CONN_01X04 P?
U 1 1 588D5FD5
P 6300 3675
F 0 "P?" H 6300 3925 50  0000 C CNN
F 1 "CONN_01X04" V 6400 3675 50  0001 C CNN
F 2 "" H 6300 3675 50  0000 C CNN
F 3 "" H 6300 3675 50  0000 C CNN
	1    6300 3675
	0    -1   1    0   
$EndComp
Text Label 6925 3425 1    60   ~ 0
Yel
Text Label 7025 3425 1    60   ~ 0
Red
Text Label 6725 3425 1    60   ~ 0
Blk
Text Label 5800 3425 1    60   ~ 0
Blk
Text Label 5700 3425 1    60   ~ 0
Brn
Wire Wire Line
	5800 3475 5800 3475
Wire Wire Line
	5800 3475 5800 3075
Wire Wire Line
	5800 3075 7825 3075
Text Label 6450 3425 1    60   ~ 0
Blk
Text Label 6150 3425 1    60   ~ 0
Orng
Text Label 6350 3425 1    60   ~ 0
White
$Comp
L CONN_01X04 P?
U 1 1 588D7FC9
P 6300 3900
F 0 "P?" H 6300 4150 50  0000 C CNN
F 1 "CONN_01X04" V 6400 3900 50  0001 C CNN
F 2 "" H 6300 3900 50  0000 C CNN
F 3 "" H 6300 3900 50  0000 C CNN
	1    6300 3900
	0    -1   -1   0   
$EndComp
Wire Wire Line
	8450 1675 8525 1675
Wire Wire Line
	8450 1775 8525 1775
Wire Wire Line
	8450 1875 8525 1875
Wire Wire Line
	8450 1975 8525 1975
Wire Wire Line
	8450 2075 8525 2075
Wire Wire Line
	8450 2175 8525 2175
Wire Wire Line
	8450 2275 8525 2275
Wire Wire Line
	8450 2375 8525 2375
Text Label 7775 2775 2    60   ~ 0
Red
Text Label 7775 2675 2    60   ~ 0
Yel
Text Label 7775 2875 2    60   ~ 0
Blk
Text Label 7775 2975 2    60   ~ 0
Blk
Text Label 7775 3075 2    60   ~ 0
Blk
Wire Wire Line
	7825 3075 7650 3175
Wire Wire Line
	7650 3175 6450 3175
Wire Wire Line
	6450 3175 6450 3475
Text Label 7600 3175 2    60   ~ 0
Blk
Text HLabel 8525 2875 2    60   Input ~ 0
Ov13:GND
Text HLabel 8525 2975 2    60   Input ~ 0
Ov14:GND
Text HLabel 8525 3075 2    60   Input ~ 0
Ov15:GND
Wire Wire Line
	8450 3075 8525 3075
Wire Wire Line
	8450 2975 8525 2975
Wire Wire Line
	8450 2875 8525 2875
Wire Wire Line
	8450 2775 8525 2775
Wire Wire Line
	8450 2675 8525 2675
Wire Wire Line
	8450 2575 8525 2575
Wire Wire Line
	8525 2475 8450 2475
$EndSCHEMATC
