EESchema Schematic File Version 2
LIBS:power
LIBS:device
LIBS:transistors
LIBS:conn
LIBS:linear
LIBS:regul
LIBS:74xx
LIBS:cmos4000
LIBS:adc-dac
LIBS:memory
LIBS:xilinx
LIBS:microcontrollers
LIBS:dsp
LIBS:microchip
LIBS:analog_switches
LIBS:motorola
LIBS:texas
LIBS:intel
LIBS:audio
LIBS:interface
LIBS:digital-audio
LIBS:philips
LIBS:display
LIBS:cypress
LIBS:siliconi
LIBS:opto
LIBS:atmel
LIBS:contrib
LIBS:valves
LIBS:Supermileage
LIBS:EllicottDisplay
LIBS:EllicottInterface
LIBS:EllicottMicrocontrollers
LIBS:EllicottMisc
LIBS:EllicottPower
LIBS:Wiring Diagram v2-cache
EELAYER 25 0
EELAYER END
$Descr USLetter 8500 11000 portrait
encoding utf-8
Sheet 3 14
Title "Sting - Gasoline Prototype"
Date "2017-01-02"
Rev "1.2"
Comp "Cedarville University"
Comment1 "Edited by Samuel Ellicott"
Comment2 "Eric Conley"
Comment3 "Wiring diagram for the back of Sting"
Comment4 ""
$EndDescr
$Comp
L Motor M1
U 1 1 57E6F264
P 4925 4025
F 0 "M1" H 4925 4025 60  0000 C CNN
F 1 "Starter Motor" H 4925 4225 60  0000 C CNN
F 2 "" H 4925 4025 60  0000 C CNN
F 3 "" H 4925 4025 60  0000 C CNN
F 4 "Mouser" H 4925 4025 60  0001 C CNN "Distributor"
	1    4925 4025
	-1   0    0    1   
$EndComp
$Comp
L Starter_Relay CR1
U 1 1 57E6F37B
P 3975 3925
F 0 "CR1" H 3975 4150 60  0000 C CNN
F 1 "Starter_Relay" H 3975 3700 60  0000 C CNN
F 2 "" H 3975 3925 60  0001 C CNN
F 3 "" H 3975 3925 60  0001 C CNN
	1    3975 3925
	1    0    0    -1  
$EndComp
Text HLabel 2825 3425 0    60   Output ~ 0
GND_MAIN
Text HLabel 2825 3325 0    60   Output ~ 0
12VBatt
Text HLabel 2825 3525 0    60   Input ~ 0
Engine_Start
$Comp
L Battery BT?
U 1 1 57E6F190
P 6275 3425
AR Path="/57E6F190" Ref="BT?"  Part="1" 
AR Path="/57E2AF30/57E6F190" Ref="BT?"  Part="1" 
F 0 "BT?" V 6075 3375 50  0001 L CNN
F 1 "12V" H 6375 3425 50  0000 L CNN
F 2 "" V 6275 3465 50  0000 C CNN
F 3 "" V 6275 3465 50  0000 C CNN
	1    6275 3425
	1    0    0    -1  
$EndComp
$Comp
L SW_SPST SW3
U 1 1 57FB6E88
P 3575 4875
F 0 "SW3" H 3575 5025 60  0000 C CNN
F 1 "ExternalKill" H 3575 4775 60  0000 C CNN
F 2 "" H 3575 4875 60  0000 C CNN
F 3 "" H 3575 4875 60  0000 C CNN
	1    3575 4875
	1    0    0    -1  
$EndComp
Text HLabel 2875 4875 0    60   Input ~ 0
Kill_In
Text HLabel 2875 5075 0    60   Output ~ 0
Kill_Out
$Sheet
S 3725 5525 1350 2300
U 5873550E
F0 "EFI_Breakout" 60
F1 "EFI_Breakout.sch" 60
F2 "P_4_12v" I L 3725 5625 60 
F3 "P_2_GND" I L 3725 5825 60 
F4 "P_3_O2" I L 3725 5725 60 
F5 "INJ_2_B" O R 5075 7275 60 
F6 "INJ_1_A" O R 5075 7375 60 
F7 "IGN_2_B" O R 5075 7625 60 
F8 "RPM_4_12v" O R 5075 6175 60 
F9 "RPM_3_Sen" I R 5075 6275 60 
F10 "RPM_2_GND" O R 5075 6375 60 
F11 "O2_4_12v" O R 5075 5625 60 
F12 "O2_3_Sen" I R 5075 5725 60 
F13 "O2_2_Cal" U R 5075 5825 60 
F14 "O2_1_GND" O R 5075 5925 60 
F15 "MAT_1_A" O L 3725 7375 60 
F16 "MAT_2_B" O L 3725 7275 60 
F17 "CLT_1_A" O L 3725 7725 60 
F18 "CLT_2_B" O L 3725 7625 60 
F19 "IAC_3_1B" O L 3725 6825 60 
F20 "IAC_4_2B" O L 3725 6725 60 
F21 "CAN_1_GND" U L 3725 6475 60 
F22 "CAN_2_CANL" B L 3725 6375 60 
F23 "CAN_3_CANH" B L 3725 6275 60 
F24 "CAN_4_PWR" U L 3725 6175 60 
F25 "P_1_GND" I L 3725 5925 60 
F26 "RPM_1_GND" O R 5075 6475 60 
F27 "IGN_1_A" O R 5075 7725 60 
F28 "TPS_3_SEN" I R 5075 6825 60 
F29 "TPS_4_REF" O R 5075 6725 60 
F30 "TPS_2_GND" O R 5075 6925 60 
F31 "TPS_1_GND" O R 5075 7025 60 
F32 "IAC_1_1A" O L 3725 7025 60 
F33 "IAC_2_2A" O L 3725 6925 60 
$EndSheet
$Comp
L RPM_Sensor U?
U 1 1 58736630
P 6050 6325
F 0 "U?" H 6050 6075 60  0001 C CNN
F 1 "RPM_Sensor" H 6050 6500 60  0000 C CNN
F 2 "" H 6050 6325 60  0000 C CNN
F 3 "" H 6050 6325 60  0000 C CNN
	1    6050 6325
	1    0    0    1   
$EndComp
$Comp
L O2_Sensor U?
U 1 1 58736636
P 6050 5875
F 0 "U?" H 6050 5525 60  0001 C CNN
F 1 "O2_Sensor" H 6050 6025 60  0000 C CNN
F 2 "" H 6050 5875 60  0000 C CNN
F 3 "" H 6050 5875 60  0000 C CNN
	1    6050 5875
	1    0    0    1   
$EndComp
Text HLabel 2975 5625 0    60   Input ~ 0
EFI_Power
Text HLabel 2975 5725 0    60   Input ~ 0
O2_Power
Text HLabel 2975 5825 0    60   Input ~ 0
EFI_GND
$Comp
L CONN_01X04 P?
U 1 1 587D9944
P 3275 5775
F 0 "P?" H 3275 6025 50  0001 C CNN
F 1 "EFI_Power" H 3375 5500 50  0000 C CNN
F 2 "" H 3275 5775 50  0000 C CNN
F 3 "" H 3275 5775 50  0000 C CNN
	1    3275 5775
	1    0    0    1   
$EndComp
$Comp
L CONN_01X04 P?
U 1 1 587D9B20
P 3425 5775
F 0 "P?" H 3425 6025 50  0001 C CNN
F 1 "EFI_Power" V 3525 5775 50  0001 C CNN
F 2 "" H 3425 5775 50  0000 C CNN
F 3 "" H 3425 5775 50  0000 C CNN
	1    3425 5775
	-1   0    0    1   
$EndComp
$Comp
L CONN_01X04 P?
U 1 1 587DD173
P 3425 6325
F 0 "P?" H 3425 6575 50  0001 C CNN
F 1 "CAN" V 3525 6325 50  0001 C CNN
F 2 "" H 3425 6325 50  0000 C CNN
F 3 "" H 3425 6325 50  0000 C CNN
	1    3425 6325
	-1   0    0    1   
$EndComp
$Comp
L CONN_01X04 P?
U 1 1 587E05EC
P 3275 6325
F 0 "P?" H 3275 6575 50  0001 C CNN
F 1 "CAN" H 3350 6075 50  0000 C CNN
F 2 "" H 3275 6325 50  0000 C CNN
F 3 "" H 3275 6325 50  0000 C CNN
	1    3275 6325
	1    0    0    1   
$EndComp
Text HLabel 2975 6175 0    60   Input ~ 0
CAN_PWR
Text HLabel 2975 6275 0    60   BiDi ~ 0
CANH
Text HLabel 2975 6375 0    60   BiDi ~ 0
CANL
Text HLabel 2975 6475 0    60   Input ~ 0
CAN_GND
$Comp
L 8_Terminal_Strip P?
U 1 1 587F01AE
P 4725 2525
F 0 "P?" H 4725 3375 50  0001 C CNN
F 1 "Terminal Strip" V 4125 2525 50  0000 C CNN
F 2 "" H 4725 1250 50  0000 C CNN
F 3 "" H 4725 1250 50  0000 C CNN
	1    4725 2525
	0    1    1    0   
$EndComp
$Comp
L FUSE F?
U 1 1 587FE842
P 5875 3175
F 0 "F?" H 5975 3225 50  0001 C CNN
F 1 "20A" H 5875 3325 50  0000 C CNN
F 2 "" H 5875 3175 50  0000 C CNN
F 3 "" H 5875 3175 50  0000 C CNN
	1    5875 3175
	1    0    0    -1  
$EndComp
$Comp
L Battery BT?
U 1 1 5880064A
P 6675 3425
AR Path="/5880064A" Ref="BT?"  Part="1" 
AR Path="/57E2AF30/5880064A" Ref="BT?"  Part="1" 
F 0 "BT?" V 6475 3375 50  0001 L CNN
F 1 "12V" H 6775 3425 50  0000 L CNN
F 2 "" V 6675 3465 50  0000 C CNN
F 3 "" V 6675 3465 50  0000 C CNN
	1    6675 3425
	1    0    0    -1  
$EndComp
Text Label 2875 3525 0    60   ~ 0
Blue
Text Label 2875 3425 0    60   ~ 0
Black
Text Label 2875 3325 0    60   ~ 0
Drk_Red
Text Label 2925 4875 0    60   ~ 0
Lt_Blue
Text Label 2925 5075 0    60   ~ 0
Lt_Blue
$Comp
L POT TPS
U 1 1 5893DA3D
P 6000 6900
AR Path="/5893DA3D" Ref="TPS"  Part="1" 
AR Path="/57E2AF30/5893DA3D" Ref="TPS"  Part="1" 
F 0 "TPS" V 6125 6775 50  0000 C CNN
F 1 "POT" H 6000 6900 50  0001 C CNN
F 2 "" H 6000 6900 50  0000 C CNN
F 3 "" H 6000 6900 50  0000 C CNN
	1    6000 6900
	0    -1   -1   0   
$EndComp
Wire Wire Line
	3425 3525 3425 3925
Wire Wire Line
	2875 4875 3375 4875
Wire Wire Line
	3625 5625 3725 5625
Wire Wire Line
	3625 5725 3725 5725
Wire Wire Line
	3625 5825 3725 5825
Wire Wire Line
	3625 5925 3725 5925
Wire Wire Line
	3075 5625 2975 5625
Wire Wire Line
	3075 5725 2975 5725
Wire Wire Line
	3075 5825 2975 5825
Wire Wire Line
	5700 6375 5750 6375
Wire Wire Line
	5750 5925 5700 5925
Wire Wire Line
	5750 5825 5700 5825
Wire Wire Line
	5700 5725 5750 5725
Wire Wire Line
	5700 5625 5750 5625
Wire Wire Line
	5700 6175 5750 6175
Wire Wire Line
	5700 6275 5750 6275
Wire Wire Line
	3625 6175 3725 6175
Wire Wire Line
	3625 6275 3725 6275
Wire Wire Line
	3625 6375 3725 6375
Wire Wire Line
	3625 6475 3725 6475
Wire Wire Line
	2975 6475 3075 6475
Wire Wire Line
	2975 6375 3075 6375
Wire Wire Line
	2975 6275 3075 6275
Wire Wire Line
	2975 6175 3075 6175
Wire Wire Line
	3775 4875 3925 4875
Wire Wire Line
	3925 4875 3925 5075
Wire Wire Line
	3925 5075 2875 5075
Wire Wire Line
	5475 2025 5475 2125
Wire Wire Line
	4775 2025 4875 2025
Wire Wire Line
	4875 2025 4975 2025
Wire Wire Line
	4975 2025 5075 2025
Wire Wire Line
	5075 2025 5175 2025
Wire Wire Line
	5175 2025 5275 2025
Wire Wire Line
	5275 2025 5375 2025
Wire Wire Line
	5375 2025 5475 2025
Wire Wire Line
	5375 2025 5375 2125
Wire Wire Line
	5175 2025 5175 2125
Connection ~ 5375 2025
Wire Wire Line
	5275 2125 5275 2025
Connection ~ 5275 2025
Wire Wire Line
	5075 2025 5075 2125
Connection ~ 5175 2025
Wire Wire Line
	4975 2025 4975 2125
Connection ~ 5075 2025
Wire Wire Line
	4375 2025 4375 2125
Wire Wire Line
	4675 2025 4675 2125
Wire Wire Line
	4575 2025 4575 2125
Connection ~ 4575 2025
Wire Wire Line
	4475 2025 4475 2125
Connection ~ 4475 2025
Wire Wire Line
	5475 3675 6275 3675
Wire Wire Line
	6275 3675 6675 3675
Wire Wire Line
	5475 2925 5475 3025
Wire Wire Line
	5475 3025 5475 3675
Wire Wire Line
	5375 2925 5375 3025
Wire Wire Line
	5375 3025 5475 3025
Connection ~ 5475 3025
Wire Wire Line
	2825 3325 4275 3325
Wire Wire Line
	2825 3425 4975 3425
Wire Wire Line
	2825 3525 3425 3525
Wire Wire Line
	5275 2925 5275 3025
Wire Wire Line
	5275 3025 5275 4025
Wire Wire Line
	5275 4025 5275 4375
Wire Wire Line
	5175 2925 5175 3025
Wire Wire Line
	5175 3025 5275 3025
Connection ~ 5275 3025
Wire Wire Line
	4675 3175 4675 2925
Wire Wire Line
	4175 2025 4275 2025
Wire Wire Line
	4275 2025 4375 2025
Wire Wire Line
	4375 2025 4475 2025
Wire Wire Line
	4475 2025 4575 2025
Wire Wire Line
	4575 2025 4675 2025
Wire Wire Line
	4775 2125 4775 2025
Connection ~ 4975 2025
Wire Wire Line
	4875 2125 4875 2025
Connection ~ 4875 2025
Wire Wire Line
	4175 2125 4175 2025
Connection ~ 4375 2025
Wire Wire Line
	4275 2125 4275 2025
Connection ~ 4275 2025
Wire Wire Line
	4475 2925 4475 3825
Wire Wire Line
	4275 3325 4275 2925
Wire Wire Line
	4575 2925 4575 3175
Connection ~ 4675 3175
Wire Wire Line
	5075 3525 3575 3525
Wire Wire Line
	5275 4025 5225 4025
Wire Wire Line
	4225 4375 3425 4375
Wire Wire Line
	3425 4375 3425 4025
Wire Wire Line
	3425 4025 3675 4025
Wire Wire Line
	5275 4375 4525 4375
Connection ~ 5275 4025
Wire Wire Line
	3675 4025 3425 3925
Wire Wire Line
	3575 3525 3575 3825
Wire Wire Line
	3575 3825 3675 3825
Wire Wire Line
	6125 3175 6275 3175
Wire Wire Line
	6275 3175 6675 3175
Wire Wire Line
	4575 3175 4675 3175
Wire Wire Line
	4675 3175 5625 3175
Wire Wire Line
	6275 3675 6275 3625
Wire Wire Line
	6275 3225 6275 3175
Wire Wire Line
	6675 3175 6675 3225
Connection ~ 6275 3175
Wire Wire Line
	6675 3675 6675 3625
Connection ~ 6275 3675
Wire Wire Line
	4625 4025 4275 4025
Wire Wire Line
	4475 3825 4275 3825
Wire Wire Line
	4975 3425 4975 2925
Wire Wire Line
	5075 3525 5075 2925
Wire Wire Line
	6000 6750 6000 6725
Wire Wire Line
	6000 6725 5700 6725
Wire Wire Line
	6225 7050 5775 7050
Wire Wire Line
	5775 7050 5775 6925
Wire Wire Line
	5775 6925 5700 6925
Wire Wire Line
	5850 6900 5825 6900
Wire Wire Line
	5825 6900 5825 6825
Wire Wire Line
	5825 6825 5700 6825
$Comp
L Fuel_Injector L?
U 1 1 5893FCDD
P 6150 7325
F 0 "L?" H 6150 7175 60  0001 C CNN
F 1 "Fuel_Injector" H 6150 7475 60  0000 C CNN
F 2 "" H 6150 7325 60  0000 C CNN
F 3 "" H 6150 7325 60  0000 C CNN
	1    6150 7325
	1    0    0    1   
$EndComp
Wire Wire Line
	5850 7275 5700 7275
Wire Wire Line
	5850 7375 5700 7375
$Comp
L Ignition U?
U 1 1 5894001C
P 6150 7675
F 0 "U?" H 6150 7525 60  0001 C CNN
F 1 "Ignition" H 6150 7825 60  0000 C CNN
F 2 "" H 6150 7675 60  0000 C CNN
F 3 "" H 6150 7675 60  0000 C CNN
	1    6150 7675
	1    0    0    1   
$EndComp
Wire Wire Line
	5850 7725 5700 7725
Wire Wire Line
	5850 7625 5700 7625
$Comp
L CONN_01X04 P?
U 1 1 589435FC
P 5500 5775
F 0 "P?" H 5500 6025 50  0001 C CNN
F 1 "O2 Sensor" H 5575 5500 50  0000 C CNN
F 2 "" H 5500 5775 50  0000 C CNN
F 3 "" H 5500 5775 50  0000 C CNN
	1    5500 5775
	-1   0    0    1   
$EndComp
$Comp
L CONN_01X04 P?
U 1 1 5894426D
P 5500 6325
F 0 "P?" H 5500 6575 50  0001 C CNN
F 1 "RPM Sensor" H 5575 6050 50  0000 C CNN
F 2 "" H 5500 6325 50  0000 C CNN
F 3 "" H 5500 6325 50  0000 C CNN
	1    5500 6325
	-1   0    0    1   
$EndComp
$Comp
L CONN_01X04 P?
U 1 1 5894481D
P 5500 6875
F 0 "P?" H 5500 7125 50  0001 C CNN
F 1 "TPS Sensor" H 5575 6600 50  0000 C CNN
F 2 "" H 5500 6875 50  0000 C CNN
F 3 "" H 5500 6875 50  0000 C CNN
	1    5500 6875
	-1   0    0    1   
$EndComp
$Comp
L CONN_01X02 P?
U 1 1 58944FE1
P 5500 7325
F 0 "P?" H 5500 7475 50  0001 C CNN
F 1 "Injector" H 5575 7150 50  0000 C CNN
F 2 "" H 5500 7325 50  0000 C CNN
F 3 "" H 5500 7325 50  0000 C CNN
	1    5500 7325
	-1   0    0    1   
$EndComp
$Comp
L CONN_01X02 P?
U 1 1 5894539F
P 5500 7675
F 0 "P?" H 5500 7825 50  0001 C CNN
F 1 "Ignition" H 5575 7525 50  0000 C CNN
F 2 "" H 5500 7675 50  0000 C CNN
F 3 "" H 5500 7675 50  0000 C CNN
	1    5500 7675
	-1   0    0    1   
$EndComp
$Comp
L CONN_01X02 P?
U 1 1 58945D6C
P 5350 7675
F 0 "P?" H 5350 7825 50  0001 C CNN
F 1 "Ignition" V 5450 7675 50  0001 C CNN
F 2 "" H 5350 7675 50  0000 C CNN
F 3 "" H 5350 7675 50  0000 C CNN
	1    5350 7675
	1    0    0    1   
$EndComp
$Comp
L CONN_01X02 P?
U 1 1 589461F6
P 5350 7325
F 0 "P?" H 5350 7475 50  0001 C CNN
F 1 "Injector" V 5450 7325 50  0001 C CNN
F 2 "" H 5350 7325 50  0000 C CNN
F 3 "" H 5350 7325 50  0000 C CNN
	1    5350 7325
	1    0    0    1   
$EndComp
$Comp
L CONN_01X04 P?
U 1 1 589464BE
P 5350 6875
F 0 "P?" H 5350 7125 50  0001 C CNN
F 1 "TPS Sensor" V 5450 6875 50  0001 C CNN
F 2 "" H 5350 6875 50  0000 C CNN
F 3 "" H 5350 6875 50  0000 C CNN
	1    5350 6875
	1    0    0    1   
$EndComp
$Comp
L CONN_01X04 P?
U 1 1 589466E5
P 5350 6325
F 0 "P?" H 5350 6575 50  0001 C CNN
F 1 "RPM Sensor" V 5450 6325 50  0001 C CNN
F 2 "" H 5350 6325 50  0000 C CNN
F 3 "" H 5350 6325 50  0000 C CNN
	1    5350 6325
	1    0    0    1   
$EndComp
$Comp
L CONN_01X04 P?
U 1 1 5894690C
P 5350 5775
F 0 "P?" H 5350 6025 50  0001 C CNN
F 1 "O2 Sensor" V 5450 5775 50  0001 C CNN
F 2 "" H 5350 5775 50  0000 C CNN
F 3 "" H 5350 5775 50  0000 C CNN
	1    5350 5775
	1    0    0    1   
$EndComp
Wire Wire Line
	5075 5625 5150 5625
Wire Wire Line
	5075 5725 5150 5725
Wire Wire Line
	5075 5825 5150 5825
Wire Wire Line
	5075 5925 5150 5925
Wire Wire Line
	5075 6175 5150 6175
Wire Wire Line
	5075 6275 5150 6275
Wire Wire Line
	5075 6375 5150 6375
Wire Wire Line
	5075 6475 5150 6475
Wire Wire Line
	5075 6725 5150 6725
Wire Wire Line
	5075 6825 5150 6825
Wire Wire Line
	5075 6925 5150 6925
Wire Wire Line
	5075 7025 5150 7025
Wire Wire Line
	5075 7275 5150 7275
Wire Wire Line
	5075 7375 5150 7375
Wire Wire Line
	5075 7625 5150 7625
Wire Wire Line
	5075 7725 5150 7725
$Comp
L THERMISTOR TH?
U 1 1 5894C2EE
P 2575 7175
F 0 "TH?" V 2675 7225 50  0001 C CNN
F 1 "Air Temp" V 2475 7175 50  0000 C BNN
F 2 "" H 2575 7175 50  0000 C CNN
F 3 "" H 2575 7175 50  0000 C CNN
	1    2575 7175
	0    1    1    0   
$EndComp
$Comp
L THERMISTOR TH?
U 1 1 5894C50E
P 2575 7725
F 0 "TH?" V 2675 7775 50  0001 C CNN
F 1 "Coolent Temp" V 2475 7725 50  0000 C BNN
F 2 "" H 2575 7725 50  0000 C CNN
F 3 "" H 2575 7725 50  0000 C CNN
	1    2575 7725
	0    1    1    0   
$EndComp
Wire Wire Line
	2975 7175 2825 7175
Wire Wire Line
	2225 7375 2225 7175
Wire Wire Line
	2225 7175 2325 7175
Wire Wire Line
	2975 7625 2975 7500
Wire Wire Line
	2975 7500 2225 7500
Wire Wire Line
	2225 7500 2225 7725
Wire Wire Line
	2225 7725 2325 7725
$Comp
L CONN_01X02 P?
U 1 1 5894F13E
P 3275 7325
F 0 "P?" H 3275 7475 50  0001 C CNN
F 1 "Air Temp" H 3350 7150 50  0000 C CNN
F 2 "" H 3275 7325 50  0000 C CNN
F 3 "" H 3275 7325 50  0000 C CNN
	1    3275 7325
	1    0    0    1   
$EndComp
$Comp
L CONN_01X02 P?
U 1 1 5894FBB5
P 3425 7325
F 0 "P?" H 3425 7475 50  0001 C CNN
F 1 "Air Temp" V 3525 7325 50  0001 C CNN
F 2 "" H 3425 7325 50  0000 C CNN
F 3 "" H 3425 7325 50  0000 C CNN
	1    3425 7325
	-1   0    0    1   
$EndComp
Wire Wire Line
	2975 7175 2975 7275
Wire Wire Line
	2975 7275 3075 7275
Wire Wire Line
	3075 7375 2225 7375
Wire Wire Line
	3625 7275 3725 7275
Wire Wire Line
	3625 7375 3725 7375
$Comp
L CONN_01X02 P?
U 1 1 5895025A
P 3275 7675
F 0 "P?" H 3275 7825 50  0001 C CNN
F 1 "Coolent Temp" H 3350 7500 50  0000 C CNN
F 2 "" H 3275 7675 50  0000 C CNN
F 3 "" H 3275 7675 50  0000 C CNN
	1    3275 7675
	1    0    0    1   
$EndComp
$Comp
L CONN_01X02 P?
U 1 1 5895064C
P 3425 7675
F 0 "P?" H 3425 7825 50  0001 C CNN
F 1 "Coolent" V 3525 7675 50  0001 C CNN
F 2 "" H 3425 7675 50  0000 C CNN
F 3 "" H 3425 7675 50  0000 C CNN
	1    3425 7675
	-1   0    0    1   
$EndComp
Wire Wire Line
	3625 7625 3725 7625
Wire Wire Line
	3625 7725 3725 7725
Wire Wire Line
	3075 7625 2975 7625
Wire Wire Line
	3075 7725 2825 7725
$Comp
L 12v-DC_DC U?
U 1 1 589B1E06
P 3425 2325
F 0 "U?" H 3425 2525 60  0001 C CNN
F 1 "12v-DC_DC" H 3425 2325 60  0000 C CNN
F 2 "" H 3325 2325 60  0000 C CNN
F 3 "" H 3325 2325 60  0000 C CNN
	1    3425 2325
	0    -1   -1   0   
$EndComp
Wire Wire Line
	3525 2925 3525 3100
Wire Wire Line
	3525 3100 4875 3100
Wire Wire Line
	4875 3100 4875 2925
Wire Wire Line
	3325 2925 3325 3150
Wire Wire Line
	3325 3150 4175 3150
Wire Wire Line
	4175 3150 4175 2925
Wire Wire Line
	3525 1725 3525 1625
Wire Wire Line
	3525 1625 3675 1625
Wire Wire Line
	3675 1625 3675 3050
Wire Wire Line
	3675 3050 4775 3050
Wire Wire Line
	4775 3050 4775 2925
Wire Wire Line
	3325 1725 3325 1525
Wire Wire Line
	3325 1525 4075 1525
Wire Wire Line
	4075 1525 4075 2125
Wire Wire Line
	6225 7050 6225 6900
Wire Wire Line
	6225 6900 6150 6900
$Comp
L LED_ALT D?
U 1 1 58BFCDF3
P 4375 4375
F 0 "D?" H 4375 4475 50  0001 C CNN
F 1 "Engine Start" H 4375 4500 50  0000 C CNN
F 2 "" H 4375 4375 50  0000 C CNN
F 3 "" H 4375 4375 50  0000 C CNN
	1    4375 4375
	-1   0    0    1   
$EndComp
$EndSCHEMATC
