EESchema Schematic File Version 2
LIBS:power
LIBS:device
LIBS:transistors
LIBS:conn
LIBS:linear
LIBS:regul
LIBS:74xx
LIBS:cmos4000
LIBS:adc-dac
LIBS:memory
LIBS:xilinx
LIBS:microcontrollers
LIBS:dsp
LIBS:microchip
LIBS:analog_switches
LIBS:motorola
LIBS:texas
LIBS:intel
LIBS:audio
LIBS:interface
LIBS:digital-audio
LIBS:philips
LIBS:display
LIBS:cypress
LIBS:siliconi
LIBS:opto
LIBS:atmel
LIBS:contrib
LIBS:valves
LIBS:Supermileage
LIBS:EllicottDisplay
LIBS:EllicottInterface
LIBS:EllicottMicrocontrollers
LIBS:EllicottMisc
LIBS:EllicottPower
LIBS:Wiring Diagram v2-cache
EELAYER 25 0
EELAYER END
$Descr USLetter 11000 8500
encoding utf-8
Sheet 9 14
Title "Pressure Transducer Board"
Date "2016-10-20"
Rev "2"
Comp "Cedarville Supermileage"
Comment1 "Sam Ellicott"
Comment2 ""
Comment3 ""
Comment4 ""
$EndDescr
$Comp
L HSCDRR004MD U?
U 1 1 58275680
P 7600 5650
AR Path="/582DB1D2/58275680" Ref="U?"  Part="1" 
AR Path="/5827D1EC/58275680" Ref="U?"  Part="1" 
AR Path="/58828DE1/58275680" Ref="U?"  Part="1" 
AR Path="/5882A967/58275680" Ref="U?"  Part="1" 
F 0 "U?" H 7600 5350 60  0001 C CNN
F 1 "HSCDRR004MD" H 7600 5950 60  0000 C CNN
F 2 "supermileage:DIP-8" H 6850 6200 60  0001 C CNN
F 3 "" H 6850 6200 60  0000 C CNN
	1    7600 5650
	1    0    0    -1  
$EndComp
$Comp
L CONN_01X04 P?
U 1 1 58275681
P 2750 4500
AR Path="/582DB1D2/58275681" Ref="P?"  Part="1" 
AR Path="/5827D1EC/58275681" Ref="P?"  Part="1" 
AR Path="/58828DE1/58275681" Ref="P?"  Part="1" 
AR Path="/5882A967/58275681" Ref="P?"  Part="1" 
F 0 "P?" H 2750 4750 50  0001 C CNN
F 1 "CONN_01X04" V 2850 4500 50  0000 C CNN
F 2 "User_Connectors:Molex-duraClick-4conn" H 2750 4500 50  0001 C CNN
F 3 "" H 2750 4500 50  0000 C CNN
	1    2750 4500
	-1   0    0    1   
$EndComp
$Comp
L C C?
U 1 1 58275682
P 8350 5650
AR Path="/582DB1D2/58275682" Ref="C?"  Part="1" 
AR Path="/5827D1EC/58275682" Ref="C?"  Part="1" 
AR Path="/58828DE1/58275682" Ref="C?"  Part="1" 
AR Path="/5882A967/58275682" Ref="C?"  Part="1" 
F 0 "C?" H 8375 5750 50  0001 L CNN
F 1 "0.1uf" H 8375 5550 50  0000 L CNN
F 2 "Capacitors_SMD:C_0603_HandSoldering" H 8388 5500 50  0001 C CNN
F 3 "" H 8350 5650 50  0000 C CNN
F 4 "Mouser" H 8350 5650 60  0001 C CNN "Distributor"
	1    8350 5650
	1    0    0    -1  
$EndComp
$Comp
L C C?
U 1 1 58275683
P 8650 5650
AR Path="/582DB1D2/58275683" Ref="C?"  Part="1" 
AR Path="/5827D1EC/58275683" Ref="C?"  Part="1" 
AR Path="/58828DE1/58275683" Ref="C?"  Part="1" 
AR Path="/5882A967/58275683" Ref="C?"  Part="1" 
F 0 "C?" H 8675 5750 50  0001 L CNN
F 1 "10uf" H 8675 5550 50  0000 L CNN
F 2 "Capacitors_SMD:C_0603_HandSoldering" H 8688 5500 50  0001 C CNN
F 3 "" H 8650 5650 50  0000 C CNN
	1    8650 5650
	1    0    0    -1  
$EndComp
$Comp
L GND #PWR?
U 1 1 58275684
P 8500 5900
AR Path="/582DB1D2/58275684" Ref="#PWR?"  Part="1" 
AR Path="/5827D1EC/58275684" Ref="#PWR?"  Part="1" 
AR Path="/58828DE1/58275684" Ref="#PWR?"  Part="1" 
AR Path="/5882A967/58275684" Ref="#PWR?"  Part="1" 
F 0 "#PWR?" H 8500 5650 50  0001 C CNN
F 1 "GND" H 8500 5750 50  0000 C CNN
F 2 "" H 8500 5900 50  0000 C CNN
F 3 "" H 8500 5900 50  0000 C CNN
	1    8500 5900
	1    0    0    -1  
$EndComp
$Comp
L +3.3V #PWR?
U 1 1 58275685
P 8500 5400
AR Path="/582DB1D2/58275685" Ref="#PWR?"  Part="1" 
AR Path="/5827D1EC/58275685" Ref="#PWR?"  Part="1" 
AR Path="/58828DE1/58275685" Ref="#PWR?"  Part="1" 
AR Path="/5882A967/58275685" Ref="#PWR?"  Part="1" 
F 0 "#PWR?" H 8500 5250 50  0001 C CNN
F 1 "+3.3V" H 8500 5540 50  0000 C CNN
F 2 "" H 8500 5400 50  0000 C CNN
F 3 "" H 8500 5400 50  0000 C CNN
	1    8500 5400
	1    0    0    -1  
$EndComp
$Comp
L +3.3V #PWR?
U 1 1 58275686
P 7050 5450
AR Path="/582DB1D2/58275686" Ref="#PWR?"  Part="1" 
AR Path="/5827D1EC/58275686" Ref="#PWR?"  Part="1" 
AR Path="/58828DE1/58275686" Ref="#PWR?"  Part="1" 
AR Path="/5882A967/58275686" Ref="#PWR?"  Part="1" 
F 0 "#PWR?" H 7050 5300 50  0001 C CNN
F 1 "+3.3V" H 7050 5590 50  0000 C CNN
F 2 "" H 7050 5450 50  0000 C CNN
F 3 "" H 7050 5450 50  0000 C CNN
	1    7050 5450
	1    0    0    -1  
$EndComp
$Comp
L GND #PWR?
U 1 1 58275687
P 3100 4800
AR Path="/582DB1D2/58275687" Ref="#PWR?"  Part="1" 
AR Path="/5827D1EC/58275687" Ref="#PWR?"  Part="1" 
AR Path="/58828DE1/58275687" Ref="#PWR?"  Part="1" 
AR Path="/5882A967/58275687" Ref="#PWR?"  Part="1" 
F 0 "#PWR?" H 3100 4550 50  0001 C CNN
F 1 "GND" H 3100 4650 50  0000 C CNN
F 2 "" H 3100 4800 50  0000 C CNN
F 3 "" H 3100 4800 50  0000 C CNN
	1    3100 4800
	1    0    0    -1  
$EndComp
$Comp
L GND #PWR?
U 1 1 58275688
P 3750 5300
AR Path="/582DB1D2/58275688" Ref="#PWR?"  Part="1" 
AR Path="/5827D1EC/58275688" Ref="#PWR?"  Part="1" 
AR Path="/58828DE1/58275688" Ref="#PWR?"  Part="1" 
AR Path="/5882A967/58275688" Ref="#PWR?"  Part="1" 
F 0 "#PWR?" H 3750 5050 50  0001 C CNN
F 1 "GND" H 3750 5150 50  0000 C CNN
F 2 "" H 3750 5300 50  0000 C CNN
F 3 "" H 3750 5300 50  0000 C CNN
	1    3750 5300
	1    0    0    -1  
$EndComp
$Comp
L GND #PWR?
U 1 1 58275689
P 7150 5950
AR Path="/582DB1D2/58275689" Ref="#PWR?"  Part="1" 
AR Path="/5827D1EC/58275689" Ref="#PWR?"  Part="1" 
AR Path="/58828DE1/58275689" Ref="#PWR?"  Part="1" 
AR Path="/5882A967/58275689" Ref="#PWR?"  Part="1" 
F 0 "#PWR?" H 7150 5700 50  0001 C CNN
F 1 "GND" H 7150 5800 50  0000 C CNN
F 2 "" H 7150 5950 50  0000 C CNN
F 3 "" H 7150 5950 50  0000 C CNN
	1    7150 5950
	1    0    0    -1  
$EndComp
Text Label 3100 4550 2    60   ~ 0
Out
Text Label 7050 5700 0    60   ~ 0
Out
$Comp
L TEST_1P W?
U 1 1 5827568A
P 4075 3200
AR Path="/582DB1D2/5827568A" Ref="W?"  Part="1" 
AR Path="/5827D1EC/5827568A" Ref="W?"  Part="1" 
AR Path="/58828DE1/5827568A" Ref="W?"  Part="1" 
AR Path="/5882A967/5827568A" Ref="W?"  Part="1" 
F 0 "W?" H 4075 3470 50  0001 C CNN
F 1 "Mount" H 4075 3400 50  0001 C CNN
F 2 "Mounting_Holes:MountingHole_2.2mm_M2" H 4275 3200 50  0001 C CNN
F 3 "" H 4275 3200 50  0000 C CNN
	1    4075 3200
	1    0    0    -1  
$EndComp
$Comp
L TEST_1P W?
U 1 1 5827568B
P 4425 3200
AR Path="/582DB1D2/5827568B" Ref="W?"  Part="1" 
AR Path="/5827D1EC/5827568B" Ref="W?"  Part="1" 
AR Path="/58828DE1/5827568B" Ref="W?"  Part="1" 
AR Path="/5882A967/5827568B" Ref="W?"  Part="1" 
F 0 "W?" H 4425 3470 50  0001 C CNN
F 1 "Mount" H 4425 3400 50  0001 C CNN
F 2 "Mounting_Holes:MountingHole_2.2mm_M2" H 4625 3200 50  0001 C CNN
F 3 "" H 4625 3200 50  0000 C CNN
	1    4425 3200
	1    0    0    -1  
$EndComp
$Comp
L TEST_1P W?
U 1 1 5827568C
P 4725 3200
AR Path="/582DB1D2/5827568C" Ref="W?"  Part="1" 
AR Path="/5827D1EC/5827568C" Ref="W?"  Part="1" 
AR Path="/58828DE1/5827568C" Ref="W?"  Part="1" 
AR Path="/5882A967/5827568C" Ref="W?"  Part="1" 
F 0 "W?" H 4725 3470 50  0001 C CNN
F 1 "Mount" H 4725 3400 50  0001 C CNN
F 2 "Mounting_Holes:MountingHole_2.2mm_M2" H 4925 3200 50  0001 C CNN
F 3 "" H 4925 3200 50  0000 C CNN
	1    4725 3200
	1    0    0    -1  
$EndComp
$Comp
L TEST_1P W?
U 1 1 5827568D
P 5075 3200
AR Path="/582DB1D2/5827568D" Ref="W?"  Part="1" 
AR Path="/5827D1EC/5827568D" Ref="W?"  Part="1" 
AR Path="/58828DE1/5827568D" Ref="W?"  Part="1" 
AR Path="/5882A967/5827568D" Ref="W?"  Part="1" 
F 0 "W?" H 5075 3470 50  0001 C CNN
F 1 "Mount" H 5075 3400 50  0001 C CNN
F 2 "Mounting_Holes:MountingHole_2.2mm_M2" H 5275 3200 50  0001 C CNN
F 3 "" H 5275 3200 50  0000 C CNN
	1    5075 3200
	1    0    0    -1  
$EndComp
$Comp
L GND #PWR?
U 1 1 5827568E
P 4600 4400
AR Path="/582DB1D2/5827568E" Ref="#PWR?"  Part="1" 
AR Path="/5827D1EC/5827568E" Ref="#PWR?"  Part="1" 
AR Path="/58828DE1/5827568E" Ref="#PWR?"  Part="1" 
AR Path="/5882A967/5827568E" Ref="#PWR?"  Part="1" 
F 0 "#PWR?" H 4600 4150 50  0001 C CNN
F 1 "GND" H 4600 4250 50  0000 C CNN
F 2 "" H 4600 4400 50  0000 C CNN
F 3 "" H 4600 4400 50  0000 C CNN
	1    4600 4400
	1    0    0    -1  
$EndComp
$Comp
L NJM2870F0 U?
U 1 1 5827568F
P 4600 3650
AR Path="/582DB1D2/5827568F" Ref="U?"  Part="1" 
AR Path="/5827D1EC/5827568F" Ref="U?"  Part="1" 
AR Path="/58828DE1/5827568F" Ref="U?"  Part="1" 
AR Path="/5882A967/5827568F" Ref="U?"  Part="1" 
F 0 "U?" H 4600 3600 60  0001 C CNN
F 1 "NJM2870F0" H 4600 3800 60  0000 C CNN
F 2 "TO_SOT_Packages_SMD:SOT-23-5" H 4600 3600 60  0001 C CNN
F 3 "" H 4600 3600 60  0000 C CNN
	1    4600 3650
	1    0    0    -1  
$EndComp
$Comp
L C C?
U 1 1 58275690
P 4050 4050
AR Path="/582DB1D2/58275690" Ref="C?"  Part="1" 
AR Path="/5827D1EC/58275690" Ref="C?"  Part="1" 
AR Path="/58828DE1/58275690" Ref="C?"  Part="1" 
AR Path="/5882A967/58275690" Ref="C?"  Part="1" 
F 0 "C?" H 4075 4150 50  0000 L CNN
F 1 "0.1uf" H 4075 3950 50  0000 L CNN
F 2 "Capacitors_SMD:C_0603_HandSoldering" H 4088 3900 50  0001 C CNN
F 3 "" H 4050 4050 50  0000 C CNN
F 4 "Mouser" H 4050 4050 60  0001 C CNN "Distributor"
	1    4050 4050
	1    0    0    -1  
$EndComp
$Comp
L C C?
U 1 1 58275691
P 5200 4150
AR Path="/582DB1D2/58275691" Ref="C?"  Part="1" 
AR Path="/5827D1EC/58275691" Ref="C?"  Part="1" 
AR Path="/58828DE1/58275691" Ref="C?"  Part="1" 
AR Path="/5882A967/58275691" Ref="C?"  Part="1" 
F 0 "C?" H 5225 4250 50  0001 L CNN
F 1 "0.1uf" H 5225 4050 50  0000 L CNN
F 2 "Capacitors_SMD:C_0603_HandSoldering" H 5238 4000 50  0001 C CNN
F 3 "" H 5200 4150 50  0000 C CNN
F 4 "Mouser" H 5200 4150 60  0001 C CNN "Distributor"
	1    5200 4150
	1    0    0    -1  
$EndComp
$Comp
L C C?
U 1 1 58275692
P 5800 4150
AR Path="/582DB1D2/58275692" Ref="C?"  Part="1" 
AR Path="/5827D1EC/58275692" Ref="C?"  Part="1" 
AR Path="/58828DE1/58275692" Ref="C?"  Part="1" 
AR Path="/5882A967/58275692" Ref="C?"  Part="1" 
F 0 "C?" H 5825 4250 50  0001 L CNN
F 1 "10uf" H 5825 4050 50  0000 L CNN
F 2 "Capacitors_SMD:C_0603_HandSoldering" H 5838 4000 50  0001 C CNN
F 3 "" H 5800 4150 50  0000 C CNN
	1    5800 4150
	1    0    0    -1  
$EndComp
$Comp
L C C?
U 1 1 58275693
P 5500 4150
AR Path="/582DB1D2/58275693" Ref="C?"  Part="1" 
AR Path="/5827D1EC/58275693" Ref="C?"  Part="1" 
AR Path="/58828DE1/58275693" Ref="C?"  Part="1" 
AR Path="/5882A967/58275693" Ref="C?"  Part="1" 
F 0 "C?" H 5525 4250 50  0001 L CNN
F 1 "0.1uf" H 5525 4050 50  0000 L CNN
F 2 "Capacitors_SMD:C_0603_HandSoldering" H 5538 4000 50  0001 C CNN
F 3 "" H 5500 4150 50  0000 C CNN
F 4 "Mouser" H 5500 4150 60  0001 C CNN "Distributor"
	1    5500 4150
	1    0    0    -1  
$EndComp
Text Notes 4225 2975 0    60   ~ 0
Mounting Holes
Text Notes 2250 4200 0    60   ~ 0
Molex DuraClik
$Comp
L CONN_01X03 P?
U 1 1 58275694
P 6650 2950
AR Path="/582DB1D2/58275694" Ref="P?"  Part="1" 
AR Path="/5827D1EC/58275694" Ref="P?"  Part="1" 
AR Path="/58828DE1/58275694" Ref="P?"  Part="1" 
AR Path="/5882A967/58275694" Ref="P?"  Part="1" 
F 0 "P?" H 6650 3150 50  0001 C CNN
F 1 "CONN_01X03" V 6800 2950 50  0000 C CNN
F 2 "Pin_Headers:Pin_Header_Straight_1x03" H 6650 2950 50  0001 C CNN
F 3 "" H 6650 2950 50  0000 C CNN
	1    6650 2950
	0    -1   -1   0   
$EndComp
Text Notes 6125 2700 0    60   ~ 0
5v->3.3v Attenuator Select
$Comp
L +5V #PWR?
U 1 1 58275695
P 5800 3600
AR Path="/582DB1D2/58275695" Ref="#PWR?"  Part="1" 
AR Path="/5827D1EC/58275695" Ref="#PWR?"  Part="1" 
AR Path="/58828DE1/58275695" Ref="#PWR?"  Part="1" 
AR Path="/5882A967/58275695" Ref="#PWR?"  Part="1" 
F 0 "#PWR?" H 5800 3450 50  0001 C CNN
F 1 "+5V" H 5800 3740 50  0000 C CNN
F 2 "" H 5800 3600 50  0000 C CNN
F 3 "" H 5800 3600 50  0000 C CNN
	1    5800 3600
	1    0    0    -1  
$EndComp
$Comp
L +5V #PWR?
U 1 1 58275696
P 7050 3100
AR Path="/582DB1D2/58275696" Ref="#PWR?"  Part="1" 
AR Path="/5827D1EC/58275696" Ref="#PWR?"  Part="1" 
AR Path="/58828DE1/58275696" Ref="#PWR?"  Part="1" 
AR Path="/5882A967/58275696" Ref="#PWR?"  Part="1" 
F 0 "#PWR?" H 7050 2950 50  0001 C CNN
F 1 "+5V" H 7050 3240 50  0000 C CNN
F 2 "" H 7050 3100 50  0000 C CNN
F 3 "" H 7050 3100 50  0000 C CNN
	1    7050 3100
	1    0    0    -1  
$EndComp
$Comp
L GND #PWR?
U 1 1 58275697
P 7050 4000
AR Path="/582DB1D2/58275697" Ref="#PWR?"  Part="1" 
AR Path="/5827D1EC/58275697" Ref="#PWR?"  Part="1" 
AR Path="/58828DE1/58275697" Ref="#PWR?"  Part="1" 
AR Path="/5882A967/58275697" Ref="#PWR?"  Part="1" 
F 0 "#PWR?" H 7050 3750 50  0001 C CNN
F 1 "GND" H 7050 3850 50  0000 C CNN
F 2 "" H 7050 4000 50  0000 C CNN
F 3 "" H 7050 4000 50  0000 C CNN
	1    7050 4000
	1    0    0    -1  
$EndComp
Text Label 6950 3250 2    60   ~ 0
Out
$Comp
L R R?
U 1 1 58275698
P 6550 3350
AR Path="/582DB1D2/58275698" Ref="R?"  Part="1" 
AR Path="/5827D1EC/58275698" Ref="R?"  Part="1" 
AR Path="/58828DE1/58275698" Ref="R?"  Part="1" 
AR Path="/5882A967/58275698" Ref="R?"  Part="1" 
F 0 "R?" V 6630 3350 50  0001 C CNN
F 1 "1k8" V 6650 3350 50  0000 C CNN
F 2 "Resistors_SMD:R_0603_HandSoldering" V 6480 3350 50  0001 C CNN
F 3 "" H 6550 3350 50  0000 C CNN
	1    6550 3350
	-1   0    0    1   
$EndComp
$Comp
L R R?
U 1 1 58275699
P 6550 3750
AR Path="/582DB1D2/58275699" Ref="R?"  Part="1" 
AR Path="/5827D1EC/58275699" Ref="R?"  Part="1" 
AR Path="/58828DE1/58275699" Ref="R?"  Part="1" 
AR Path="/5882A967/58275699" Ref="R?"  Part="1" 
F 0 "R?" V 6630 3750 50  0001 C CNN
F 1 "8k2" V 6650 3750 50  0000 C CNN
F 2 "Resistors_SMD:R_0603_HandSoldering" V 6480 3750 50  0001 C CNN
F 3 "" H 6550 3750 50  0000 C CNN
	1    6550 3750
	-1   0    0    1   
$EndComp
Text Label 6350 3550 0    60   ~ 0
Out
Wire Wire Line
	8350 5800 8350 5850
Wire Wire Line
	8350 5850 8650 5850
Wire Wire Line
	8650 5850 8650 5800
Wire Wire Line
	8500 5900 8500 5850
Connection ~ 8500 5850
Wire Wire Line
	8350 5500 8350 5450
Wire Wire Line
	8350 5450 8650 5450
Wire Wire Line
	8650 5450 8650 5500
Wire Wire Line
	8500 5400 8500 5450
Connection ~ 8500 5450
Wire Wire Line
	2950 4550 3100 4550
Wire Wire Line
	3400 4450 3400 4950
Wire Wire Line
	2950 4650 3100 4650
Wire Wire Line
	3100 4650 3100 4800
Wire Wire Line
	3750 5250 3750 5300
Wire Wire Line
	7150 5950 7150 5800
Wire Wire Line
	7150 5800 7200 5800
Wire Wire Line
	7050 5700 7200 5700
Wire Wire Line
	3400 4950 3550 4950
Wire Wire Line
	2950 4450 3400 4450
Wire Wire Line
	3750 4350 3750 4150
Wire Wire Line
	3400 4350 2950 4350
Wire Wire Line
	3400 3850 3550 3850
Wire Wire Line
	4600 4300 4600 4400
Wire Wire Line
	3750 4350 5800 4350
Wire Wire Line
	3950 3850 4100 3850
Wire Wire Line
	4100 3650 4050 3650
Wire Wire Line
	4050 3650 4050 3900
Connection ~ 4050 3850
Wire Wire Line
	4050 4200 4050 4350
Connection ~ 4050 4350
Wire Wire Line
	5100 3850 5200 3850
Wire Wire Line
	5200 3850 5200 4000
Wire Wire Line
	5200 4350 5200 4300
Connection ~ 4600 4350
Wire Wire Line
	5100 3650 5800 3650
Wire Wire Line
	5500 3650 5500 4000
Wire Wire Line
	5500 4350 5500 4300
Connection ~ 5200 4350
Wire Wire Line
	5800 4350 5800 4300
Connection ~ 5500 4350
Wire Wire Line
	5800 3600 5800 4000
Connection ~ 5500 3650
Connection ~ 5800 3650
Wire Wire Line
	7200 3350 7050 3350
Wire Wire Line
	7050 3350 7050 3100
Wire Wire Line
	7200 3550 7050 3550
Wire Wire Line
	7050 3550 7050 4000
Wire Wire Line
	7200 3450 6650 3450
Wire Wire Line
	6650 3150 6650 4650
Wire Wire Line
	6750 3250 6950 3250
Wire Wire Line
	6550 3150 6550 3200
Wire Wire Line
	6550 3500 6550 3600
Wire Wire Line
	7050 3950 6550 3950
Wire Wire Line
	6550 3950 6550 3900
Connection ~ 7050 3950
Wire Wire Line
	6350 3550 6550 3550
Connection ~ 6550 3550
$Comp
L C C?
U 1 1 5827569A
P 8300 3500
AR Path="/582DB1D2/5827569A" Ref="C?"  Part="1" 
AR Path="/5827D1EC/5827569A" Ref="C?"  Part="1" 
AR Path="/58828DE1/5827569A" Ref="C?"  Part="1" 
AR Path="/5882A967/5827569A" Ref="C?"  Part="1" 
F 0 "C?" H 8325 3600 50  0001 L CNN
F 1 "0.1uf" H 8325 3400 50  0000 L CNN
F 2 "Capacitors_SMD:C_0603_HandSoldering" H 8338 3350 50  0001 C CNN
F 3 "" H 8300 3500 50  0000 C CNN
F 4 "Mouser" H 8300 3500 60  0001 C CNN "Distributor"
	1    8300 3500
	1    0    0    -1  
$EndComp
$Comp
L C C?
U 1 1 5827569B
P 8650 3500
AR Path="/582DB1D2/5827569B" Ref="C?"  Part="1" 
AR Path="/5827D1EC/5827569B" Ref="C?"  Part="1" 
AR Path="/58828DE1/5827569B" Ref="C?"  Part="1" 
AR Path="/5882A967/5827569B" Ref="C?"  Part="1" 
F 0 "C?" H 8675 3600 50  0001 L CNN
F 1 "10uf" H 8675 3400 50  0000 L CNN
F 2 "Capacitors_SMD:C_0603_HandSoldering" H 8688 3350 50  0001 C CNN
F 3 "" H 8650 3500 50  0000 C CNN
	1    8650 3500
	1    0    0    -1  
$EndComp
$Comp
L +5V #PWR?
U 1 1 5827569C
P 8500 3250
AR Path="/582DB1D2/5827569C" Ref="#PWR?"  Part="1" 
AR Path="/5827D1EC/5827569C" Ref="#PWR?"  Part="1" 
AR Path="/58828DE1/5827569C" Ref="#PWR?"  Part="1" 
AR Path="/5882A967/5827569C" Ref="#PWR?"  Part="1" 
F 0 "#PWR?" H 8500 3100 50  0001 C CNN
F 1 "+5V" H 8500 3390 50  0000 C CNN
F 2 "" H 8500 3250 50  0000 C CNN
F 3 "" H 8500 3250 50  0000 C CNN
	1    8500 3250
	1    0    0    -1  
$EndComp
$Comp
L GND #PWR?
U 1 1 5827569D
P 8500 3750
AR Path="/582DB1D2/5827569D" Ref="#PWR?"  Part="1" 
AR Path="/5827D1EC/5827569D" Ref="#PWR?"  Part="1" 
AR Path="/58828DE1/5827569D" Ref="#PWR?"  Part="1" 
AR Path="/5882A967/5827569D" Ref="#PWR?"  Part="1" 
F 0 "#PWR?" H 8500 3500 50  0001 C CNN
F 1 "GND" H 8500 3600 50  0000 C CNN
F 2 "" H 8500 3750 50  0000 C CNN
F 3 "" H 8500 3750 50  0000 C CNN
	1    8500 3750
	1    0    0    -1  
$EndComp
Wire Wire Line
	8300 3650 8300 3700
Wire Wire Line
	8300 3700 8650 3700
Wire Wire Line
	8650 3700 8650 3650
Wire Wire Line
	8500 3750 8500 3700
Connection ~ 8500 3700
Wire Wire Line
	8300 3350 8300 3300
Wire Wire Line
	8300 3300 8650 3300
Wire Wire Line
	8650 3300 8650 3350
Wire Wire Line
	8500 3250 8500 3300
Connection ~ 8500 3300
$Comp
L Q_PMOS_GSD Q?
U 1 1 5827569E
P 3750 3950
AR Path="/582DB1D2/5827569E" Ref="Q?"  Part="1" 
AR Path="/5827D1EC/5827569E" Ref="Q?"  Part="1" 
AR Path="/58828DE1/5827569E" Ref="Q?"  Part="1" 
AR Path="/5882A967/5827569E" Ref="Q?"  Part="1" 
F 0 "Q?" V 3650 4100 50  0001 R CNN
F 1 "Q_PMOS_GSD" V 4000 4200 50  0000 R CNN
F 2 "TO_SOT_Packages_SMD:SOT-23_Handsoldering" H 3950 4050 50  0001 C CNN
F 3 "" H 3750 3950 50  0000 C CNN
	1    3750 3950
	0    -1   -1   0   
$EndComp
Wire Wire Line
	3400 4350 3400 3850
$Comp
L Q_PMOS_GSD Q?
U 1 1 5827569F
P 3750 5050
AR Path="/582DB1D2/5827569F" Ref="Q?"  Part="1" 
AR Path="/5827D1EC/5827569F" Ref="Q?"  Part="1" 
AR Path="/58828DE1/5827569F" Ref="Q?"  Part="1" 
AR Path="/5882A967/5827569F" Ref="Q?"  Part="1" 
F 0 "Q?" V 3650 5200 50  0001 R CNN
F 1 "Q_PMOS_GSD" V 4000 5350 50  0000 R CNN
F 2 "TO_SOT_Packages_SMD:SOT-23_Handsoldering" H 3950 5150 50  0001 C CNN
F 3 "" H 3750 5050 50  0000 C CNN
	1    3750 5050
	0    -1   -1   0   
$EndComp
Text Notes 7075 5150 0    60   ~ 0
3.3V differential pressure transducer
Text Notes 7250 2950 0    60   ~ 0
5V absolute pressure transducer
$Comp
L +3.3V #PWR?
U 1 1 582756A0
P 4100 4950
AR Path="/582DB1D2/582756A0" Ref="#PWR?"  Part="1" 
AR Path="/5827D1EC/582756A0" Ref="#PWR?"  Part="1" 
AR Path="/58828DE1/582756A0" Ref="#PWR?"  Part="1" 
AR Path="/5882A967/582756A0" Ref="#PWR?"  Part="1" 
F 0 "#PWR?" H 4100 4800 50  0001 C CNN
F 1 "+3.3V" H 4100 5090 50  0000 C CNN
F 2 "" H 4100 4950 50  0000 C CNN
F 3 "" H 4100 4950 50  0000 C CNN
	1    4100 4950
	1    0    0    -1  
$EndComp
Wire Wire Line
	4100 4950 3950 4950
Wire Wire Line
	7200 5600 7050 5600
Wire Wire Line
	7050 5600 7050 5450
Wire Wire Line
	6750 3150 6750 3250
$Comp
L ASDX100A24R U?
U 1 1 582756A1
P 7600 3500
AR Path="/582DB1D2/582756A1" Ref="U?"  Part="1" 
AR Path="/5827D1EC/582756A1" Ref="U?"  Part="1" 
AR Path="/58828DE1/582756A1" Ref="U?"  Part="1" 
AR Path="/5882A967/582756A1" Ref="U?"  Part="1" 
F 0 "U?" H 7600 3200 60  0001 C CNN
F 1 "ASDX100A24R" H 7600 3800 60  0000 C CNN
F 2 "supermileage:ASDX100A24R" H 6850 4050 60  0001 C CNN
F 3 "" H 6850 4050 60  0000 C CNN
	1    7600 3500
	1    0    0    -1  
$EndComp
$Comp
L G4V-MINI U?
U 1 1 582756A2
P 7700 4600
AR Path="/582DB1D2/582756A2" Ref="U?"  Part="1" 
AR Path="/5827D1EC/582756A2" Ref="U?"  Part="1" 
AR Path="/58828DE1/582756A2" Ref="U?"  Part="1" 
AR Path="/5882A967/582756A2" Ref="U?"  Part="1" 
F 0 "U?" H 7700 4300 60  0001 C CNN
F 1 "G4V-MINI" H 7700 4900 60  0000 C CNN
F 2 "Socket_Strips:Socket_Strip_Straight_1x04" H 6950 5150 60  0001 C CNN
F 3 "" H 6950 5150 60  0000 C CNN
	1    7700 4600
	1    0    0    -1  
$EndComp
$Comp
L +5V #PWR?
U 1 1 582756A3
P 7050 4400
AR Path="/582DB1D2/582756A3" Ref="#PWR?"  Part="1" 
AR Path="/5827D1EC/582756A3" Ref="#PWR?"  Part="1" 
AR Path="/58828DE1/582756A3" Ref="#PWR?"  Part="1" 
AR Path="/5882A967/582756A3" Ref="#PWR?"  Part="1" 
F 0 "#PWR?" H 7050 4250 50  0001 C CNN
F 1 "+5V" H 7050 4540 50  0000 C CNN
F 2 "" H 7050 4400 50  0000 C CNN
F 3 "" H 7050 4400 50  0000 C CNN
	1    7050 4400
	1    0    0    -1  
$EndComp
Wire Wire Line
	7400 4450 7050 4450
Wire Wire Line
	7050 4450 7050 4400
Wire Wire Line
	6650 4650 7400 4650
Connection ~ 6650 3450
$Comp
L GND #PWR?
U 1 1 582756A4
P 7050 4800
AR Path="/582DB1D2/582756A4" Ref="#PWR?"  Part="1" 
AR Path="/5827D1EC/582756A4" Ref="#PWR?"  Part="1" 
AR Path="/58828DE1/582756A4" Ref="#PWR?"  Part="1" 
AR Path="/5882A967/582756A4" Ref="#PWR?"  Part="1" 
F 0 "#PWR?" H 7050 4550 50  0001 C CNN
F 1 "GND" H 7050 4650 50  0000 C CNN
F 2 "" H 7050 4800 50  0000 C CNN
F 3 "" H 7050 4800 50  0000 C CNN
	1    7050 4800
	1    0    0    -1  
$EndComp
Wire Wire Line
	7050 4800 7050 4550
Wire Wire Line
	7050 4550 7400 4550
Text Notes 7300 4150 0    60   ~ 0
5V differential pressure transducer
$Comp
L CONN_01X04 P?
U 1 1 58276BE6
P 2400 4500
AR Path="/582DB1D2/58276BE6" Ref="P?"  Part="1" 
AR Path="/5827D1EC/58276BE6" Ref="P?"  Part="1" 
AR Path="/58828DE1/58276BE6" Ref="P?"  Part="1" 
AR Path="/5882A967/58276BE6" Ref="P?"  Part="1" 
F 0 "P?" H 2400 4750 50  0001 C CNN
F 1 "CONN_01X04" V 2500 4500 50  0000 C CNN
F 2 "" H 2400 4500 50  0000 C CNN
F 3 "" H 2400 4500 50  0000 C CNN
	1    2400 4500
	1    0    0    1   
$EndComp
Text HLabel 2025 4650 0    60   Input ~ 0
P1_GND
Text HLabel 2025 4550 0    60   Input ~ 0
P2_PRESSURE
Text HLabel 2025 4450 0    60   Input ~ 0
P3_3.3V
Text HLabel 2025 4350 0    60   Input ~ 0
P4_5-9V
Wire Wire Line
	2025 4350 2200 4350
Wire Wire Line
	2200 4450 2025 4450
Wire Wire Line
	2025 4550 2200 4550
Wire Wire Line
	2200 4650 2025 4650
Text Notes 725  7800 0    60   ~ 0
Full schematics with reference numbers are in the \npressure_sensor folder in the supermileagehw git repo at \nhttps://github.com/HEEV/supermileageHW
Text Notes 625  2900 0    60   ~ 0
Comments:\n\nQ1 and Q2 are reverse polarity protection transistors. They are P-Channel\nMosfets, so they have a very small resistance when on. \nCare should be taken in their selection so that their V-GS threshold is\nunder 1v\n\nU2 is a 5v regulator for the 5v pressure transducer. The output of U3 \ngoes through a selectable attenuator for a full 5v output or a 3.3v output.\n\nThere are positions for three pressure transducers on this board; \nhowever only one of them can be populated at a time. The top two\ntransducers are 5v and have a selectable attenuator for using with a\n3.3v microcontroller. The bottom transducer is 3.3v.\n\nThe connector is a Molex DuraClik Part numbers are as follows\nFemale Socket:\nDigiKey:  WM12262-ND\nMouser: 538-505151-0400\nPCB Header:\nDigiKey: WM7171CT-ND\nMouser: 538-502352-0400\nPins:\nDigiKey: WM12344CT-ND\nMouser: 538-505153-8000-CT
$EndSCHEMATC
