EESchema Schematic File Version 2
LIBS:power
LIBS:device
LIBS:transistors
LIBS:conn
LIBS:linear
LIBS:regul
LIBS:74xx
LIBS:cmos4000
LIBS:adc-dac
LIBS:memory
LIBS:xilinx
LIBS:microcontrollers
LIBS:dsp
LIBS:microchip
LIBS:analog_switches
LIBS:motorola
LIBS:texas
LIBS:intel
LIBS:audio
LIBS:interface
LIBS:digital-audio
LIBS:philips
LIBS:display
LIBS:cypress
LIBS:siliconi
LIBS:opto
LIBS:atmel
LIBS:contrib
LIBS:valves
LIBS:Supermileage
LIBS:EllicottDisplay
LIBS:EllicottInterface
LIBS:EllicottMicrocontrollers
LIBS:EllicottMisc
LIBS:EllicottPower
LIBS:Wiring Diagram v2-cache
EELAYER 25 0
EELAYER END
$Descr USLetter 8500 11000 portrait
encoding utf-8
Sheet 2 14
Title "Sting - Gasoline Prototype"
Date "2017-01-04"
Rev "1.2"
Comp "Cedarville University"
Comment1 "Edited by Samuel Ellicott"
Comment2 "Eric Conley"
Comment3 ""
Comment4 ""
$EndDescr
$Comp
L SW_NO SW5
U 1 1 57E14402
P 3550 6575
F 0 "SW5" H 3675 6725 60  0000 C CNN
F 1 "Engine Start" H 3550 6475 60  0000 C CNN
F 2 "" H 3550 6575 60  0000 C CNN
F 3 "" H 3550 6575 60  0000 C CNN
	1    3550 6575
	1    0    0    -1  
$EndComp
$Comp
L SW_NO SW7
U 1 1 57E14F53
P 6150 4925
F 0 "SW7" H 6275 5075 60  0000 C CNN
F 1 "Horn" H 6150 4825 60  0000 C CNN
F 2 "" H 6150 4925 60  0000 C CNN
F 3 "" H 6150 4925 60  0000 C CNN
	1    6150 4925
	1    0    0    -1  
$EndComp
$Comp
L SW_NO SW6
U 1 1 57E1500F
P 3550 6075
F 0 "SW6" H 3675 6225 60  0000 C CNN
F 1 "Engine Stop" H 3550 5975 60  0000 C CNN
F 2 "" H 3550 6075 60  0000 C CNN
F 3 "" H 3550 6075 60  0000 C CNN
	1    3550 6075
	1    0    0    -1  
$EndComp
$Comp
L Throttle U?
U 1 1 57E1510C
P 5800 4025
F 0 "U?" H 5450 4025 60  0001 C CNN
F 1 "Throttle" H 5600 3775 60  0000 C CNN
F 2 "" H 5800 4125 60  0000 C CNN
F 3 "" H 5800 4125 60  0000 C CNN
	1    5800 4025
	-1   0    0    -1  
$EndComp
$Comp
L Led_Small D?
U 1 1 57E152BF
P 4400 5075
F 0 "D?" H 4350 5200 50  0001 L CNN
F 1 "Power On" H 4225 4975 50  0000 L CNN
F 2 "" V 4400 5075 50  0000 C CNN
F 3 "" V 4400 5075 50  0000 C CNN
	1    4400 5075
	-1   0    0    1   
$EndComp
$Comp
L Led_Small D?
U 1 1 57E153DC
P 4400 4775
F 0 "D?" H 4350 4900 50  0001 L CNN
F 1 "O2 On" H 4225 4675 50  0000 L CNN
F 2 "" V 4400 4775 50  0000 C CNN
F 3 "" V 4400 4775 50  0000 C CNN
	1    4400 4775
	-1   0    0    1   
$EndComp
$Comp
L Led_Small D?
U 1 1 57E15580
P 4400 4425
F 0 "D?" H 4350 4550 50  0001 L CNN
F 1 "EFI On" H 4225 4325 50  0000 L CNN
F 2 "" V 4400 4425 50  0000 C CNN
F 3 "" V 4400 4425 50  0000 C CNN
	1    4400 4425
	-1   0    0    1   
$EndComp
$Comp
L Led_Small D?
U 1 1 57E155BC
P 4400 5525
F 0 "D?" H 4350 5650 50  0001 L CNN
F 1 "Drive On" H 4225 5425 50  0000 L CNN
F 2 "" V 4400 5525 50  0000 C CNN
F 3 "" V 4400 5525 50  0000 C CNN
	1    4400 5525
	-1   0    0    1   
$EndComp
$Comp
L SW_NO SW8
U 1 1 57E15EB3
P 6150 5325
F 0 "SW8" H 6275 5475 60  0000 C CNN
F 1 "Horn" H 6150 5225 60  0000 C CNN
F 2 "" H 6150 5325 60  0000 C CNN
F 3 "" H 6150 5325 60  0000 C CNN
	1    6150 5325
	1    0    0    -1  
$EndComp
$Comp
L R R?
U 1 1 57E1710F
P 4850 5525
F 0 "R?" V 4930 5525 50  0001 C CNN
F 1 "680" V 4950 5525 50  0000 C CNN
F 2 "" V 4780 5525 50  0000 C CNN
F 3 "" H 4850 5525 50  0000 C CNN
	1    4850 5525
	0    1    1    0   
$EndComp
$Comp
L R R?
U 1 1 57E17292
P 4850 4775
F 0 "R?" V 4930 4775 50  0001 C CNN
F 1 "680" V 4950 4775 50  0000 C CNN
F 2 "" V 4780 4775 50  0000 C CNN
F 3 "" H 4850 4775 50  0000 C CNN
	1    4850 4775
	0    1    1    0   
$EndComp
$Comp
L R R?
U 1 1 57E172E2
P 4850 5075
F 0 "R?" V 4930 5075 50  0001 C CNN
F 1 "680" V 4950 5075 50  0000 C CNN
F 2 "" V 4780 5075 50  0000 C CNN
F 3 "" H 4850 5075 50  0000 C CNN
	1    4850 5075
	0    1    1    0   
$EndComp
$Comp
L R R?
U 1 1 57E17343
P 4850 4425
F 0 "R?" V 4930 4425 50  0001 C CNN
F 1 "680" V 4950 4425 50  0000 C CNN
F 2 "" V 4780 4425 50  0000 C CNN
F 3 "" H 4850 4425 50  0000 C CNN
	1    4850 4425
	0    1    1    0   
$EndComp
Text HLabel 3150 4425 0    60   Input ~ 0
EFI_INDICATOR
Text HLabel 3150 4775 0    60   Input ~ 0
O2_INDICATOR
Text HLabel 3150 7125 0    60   Input ~ 0
GND
$Comp
L SW_SPST SW4
U 1 1 57E14E5E
P 3550 5525
F 0 "SW4" H 3550 5675 60  0000 C CNN
F 1 "Driver Kill" H 3550 5425 60  0000 C CNN
F 2 "" H 3550 5525 60  0000 C CNN
F 3 "" H 3550 5525 60  0000 C CNN
	1    3550 5525
	1    0    0    -1  
$EndComp
Wire Wire Line
	5450 3975 5600 3975
Wire Wire Line
	3150 5525 3350 5525
Wire Wire Line
	4500 4425 4700 4425
Wire Wire Line
	4500 4775 4700 4775
Wire Wire Line
	4500 5075 4700 5075
Wire Wire Line
	4500 5525 4700 5525
Connection ~ 5450 5075
Wire Wire Line
	5450 5075 5000 5075
Connection ~ 5450 4775
Wire Wire Line
	5450 4775 5000 4775
Connection ~ 5450 4425
Wire Wire Line
	3150 6075 3350 6075
Wire Wire Line
	3150 6575 3350 6575
Wire Wire Line
	3750 5525 4300 5525
Wire Wire Line
	4000 6075 3750 6075
Connection ~ 4000 5525
Wire Wire Line
	4000 6575 3750 6575
Connection ~ 4000 6075
Wire Wire Line
	5950 4925 5850 4925
Wire Wire Line
	5850 4925 5850 5325
Wire Wire Line
	4000 5325 5950 5325
Connection ~ 5850 5325
Wire Wire Line
	6350 4925 6450 4925
Wire Wire Line
	6450 4925 6450 7325
Wire Wire Line
	6450 5325 6350 5325
Wire Wire Line
	5450 5525 5000 5525
Wire Wire Line
	4000 5525 4000 6925
Wire Wire Line
	3150 5075 4300 5075
Wire Wire Line
	4300 4775 3150 4775
Wire Wire Line
	3150 4425 4300 4425
Text HLabel 3150 5075 0    60   Input ~ 0
POWER_INDICATOR
Text HLabel 3150 6925 0    60   Input ~ 0
SW_POWER
Text HLabel 3150 6075 0    60   Input ~ 0
ENGINE_STOP_OUT
Text HLabel 3150 6575 0    60   Input ~ 0
ENGINE_START_OUT
Connection ~ 6450 5325
Text HLabel 3150 7325 0    60   Input ~ 0
HORN_OUT
Wire Wire Line
	4000 6925 3150 6925
Connection ~ 4000 6575
Text HLabel 3150 5525 0    60   Input ~ 0
DRIVER_KILL_OUT
Wire Wire Line
	5000 4425 5450 4425
Connection ~ 5450 5525
Wire Wire Line
	5450 7125 3150 7125
Wire Wire Line
	5450 3975 5450 7125
Wire Wire Line
	6450 7325 3150 7325
Text HLabel 3150 3875 0    60   Input ~ 0
5V
Text HLabel 3150 4075 0    60   Input ~ 0
SIGNAL
Wire Wire Line
	3150 3875 5600 3875
Wire Wire Line
	5600 4075 3150 4075
Wire Wire Line
	4000 5325 4000 5075
Connection ~ 4000 5075
$EndSCHEMATC
